banked_sram_ctrl/sim/build/NUM_BANKS_4_BANK_DEPTH_256_DATA_WIDTH_32_ADDR_WIDTH_10_NUM_REQ_PORTS_2_QUEUE_DEPTH_4_ID_WIDTH_4/unit/waves/rsp_mux.vcd
$version Generated by VerilatedVcd $end
$timescale 1ps $end
 $scope module sram_ctrl_pkg $end
  $var wire 32 : NUM_BANKS [31:0] $end
  $var wire 32 > BANK_DEPTH [31:0] $end
  $var wire 32 ; DATA_WIDTH [31:0] $end
  $var wire 32 ? ADDR_WIDTH [31:0] $end
  $var wire 32 : NUM_REQ_PORTS [31:0] $end
  $var wire 32 : QUEUE_DEPTH [31:0] $end
  $var wire 32 : ID_WIDTH [31:0] $end
  $var wire 32 = BANK_SEL_BITS [31:0] $end
  $var wire 32 @ BANK_ADDR_BITS [31:0] $end
  $var wire 32 = PORT_ID_BITS [31:0] $end
  $var wire 32 < TOTAL_ID_BITS [31:0] $end
  $var wire 32 : STROBE_WIDTH [31:0] $end
 $upscope $end
 $scope module tb_rsp_mux $end
  $var wire 32 : NUM_BANKS [31:0] $end
  $var wire 32 : NUM_REQ_PORTS [31:0] $end
  $var wire 32 ; DATA_WIDTH [31:0] $end
  $var wire 32 : ID_WIDTH [31:0] $end
  $var wire 32 < TOTAL_ID_BITS [31:0] $end
  $var wire 32 = PORT_ID_BITS [31:0] $end
  $var wire 4 " pp1_valid [3:0] $end
  $var wire 128 # pp1_rdata [127:0] $end
  $var wire 24 ' pp1_id [23:0] $end
  $var wire 4 ( pp1_we [3:0] $end
  $var wire 4 ) pp1_err [3:0] $end
  $var wire 4 * rsp_fifo_ready [3:0] $end
  $var wire 4 + rsp_valid [3:0] $end
  $var wire 128 , rsp_data [127:0] $end
  $var wire 16 0 rsp_id [15:0] $end
  $var wire 4 1 rsp_err [3:0] $end
  $var wire 4 6 bank_pp1_ready [3:0] $end
  $var wire 1 7 clk $end
  $var wire 32 8 error_count [31:0] $end
  $var wire 32 9 test_id [31:0] $end
  $scope module dut $end
   $var wire 32 : NUM_BANKS [31:0] $end
   $var wire 32 : NUM_REQ_PORTS [31:0] $end
   $var wire 32 ; DATA_WIDTH [31:0] $end
   $var wire 32 : ID_WIDTH [31:0] $end
   $var wire 32 < TOTAL_ID_BITS [31:0] $end
   $var wire 32 = PORT_ID_BITS [31:0] $end
   $var wire 4 " pp1_valid [3:0] $end
   $var wire 128 # pp1_rdata [127:0] $end
   $var wire 24 ' pp1_id [23:0] $end
   $var wire 4 ( pp1_we [3:0] $end
   $var wire 4 ) pp1_err [3:0] $end
   $var wire 4 + rsp_valid [3:0] $end
   $var wire 128 , rsp_data [127:0] $end
   $var wire 16 0 rsp_id [15:0] $end
   $var wire 4 1 rsp_err [3:0] $end
   $var wire 4 * rsp_fifo_ready [3:0] $end
   $var wire 4 6 bank_pp1_ready [3:0] $end
   $var wire 8 2 dest_ports [7:0] $end
   $var wire 2 3 p [1:0] $end
   $var wire 1 4 found $end
   $var wire 4 5 bank_granted [3:0] $end
  $upscope $end
 $upscope $end
 $scope module verif_pkg $end
  $var wire 32 : NUM_BANKS [31:0] $end
  $var wire 32 > BANK_DEPTH [31:0] $end
  $var wire 32 ; DATA_WIDTH [31:0] $end
  $var wire 32 ? ADDR_WIDTH [31:0] $end
  $var wire 32 : NUM_REQ_PORTS [31:0] $end
  $var wire 32 : QUEUE_DEPTH [31:0] $end
  $var wire 32 : ID_WIDTH [31:0] $end
  $var wire 32 : STROBE_WIDTH [31:0] $end
  $var wire 32 = BANK_SEL_BITS [31:0] $end
  $var wire 32 @ BANK_ADDR_BITS [31:0] $end
  $var wire 32 A MAX_ADDR [31:0] $end
  $var wire 32 B CSR_ADDR_W [31:0] $end
  $var wire 32 C OFF_REQ [31:0] $end
  $var wire 32 : OFF_RSP [31:0] $end
  $var wire 32 @ OFF_CONF [31:0] $end
  $var wire 32 D OFF_QF [31:0] $end
  $var wire 32 E OFF_IDLE [31:0] $end
 $upscope $end
$enddefinitions $end


#0
b0000 "
b00000000000000000000000000000000000000000000000000000000000000000000000000000000000000000000000000000000000000000000000000000000 #
b000000000000000000000000 '
b0000 (
b0000 )
b1111 *
b0000 +
b00000000000000000000000000000000000000000000000000000000000000000000000000000000000000000000000000000000000000000000000000000000 ,
b0000000000000000 0
b0000 1
b00000000 2
b00 3
04
b0000 5
b1111 6
07
b00000000000000000000000000000000 8
b00000000000000000000000000000001 9
b00000000000000000000000000000100 :
b00000000000000000000000000100000 ;
b00000000000000000000000000000110 <
b00000000000000000000000000000010 =
b00000000000000000000000100000000 >
b00000000000000000000000000001010 ?
b00000000000000000000000000001000 @
b00000000000000000000001111111111 A
b00000000000000000000000000000101 B
b00000000000000000000000000000000 C
b00000000000000000000000000011000 D
b00000000000000000000000000011100 E
#5000
17
#6000
b0100 "
b00000000000000000000000000000000110111101010110110111110111011110000000000000000000000000000000000000000000000000000000000000000 #
b000000010011000000000000 '
b0010 +
b00000000000000000000000000000000000000000000000000000000000000001101111010101101101111101110111100000000000000000000000000000000 ,
b0000000000110000 0
b00010000 2
b0100 5
b00000000000000000000000000000010 9
#10000
07
#15000
17
#16000
b0001 "
b00000000000000000000000000000000000000000000000000000000000000000000000000000000000000000000000011111111111111111111111111111111 #
b000000000000000000000101 '
b0001 (
b0001 +
b00000000000000000000000000000000000000000000000000000000000000000000000000000000000000000000000000000000000000000000000000000000 ,
b0000000000000101 0
b00000000 2
b0001 5
b00000000000000000000000000000011 9
#20000
07
#25000
17
#26000
b0010 "
b00000000000000000000000000000000000000000000000000000000000000000000000000000000000000000000000000000000000000000000000000000000 #
b000000000000111010000000 '
b0000 (
b1000 +
b1010000000000000 0
b00001100 2
14
b0010 5
b00000000000000000000000000000100 9
#30000
07
#35000
17
#36000
b1000 "
b100000000000000000000000 '
b1000 )
b0100 +
b0000000000000000 0
b0100 1
b10000000 2
b10 3
04
b1000 5
b00000000000000000000000000000101 9
#40000
07
#45000
17
#46000
b1010 "
b00110011001100110011001100110011000000000000000000000000000000000001000100010001000100010001000100000000000000000000000000000000 #
b000000000000000000000000 '
b0000 )
b0001 +
b00000000000000000000000000000000000000000000000000000000000000000000000000000000000000000000000000010001000100010001000100010001 ,
b0000 1
b00000000 2
b00 3
b0010 5
b0111 6
b00000000000000000000000000000110 9
#50000
07
#55000
17
#56000
b0101 "
b00000000000000000000000000000000101110111011101110111011101110110000000000000000000000000000000010101010101010101010101010101010 #
b000000110000000000010000 '
b1010 +
b10111011101110111011101110111011000000000000000000000000000000001010101010101010101010101010101000000000000000000000000000000000 ,
b00110001 2
14
b0101 5
b1111 6
b00000000000000000000000000000111 9
#60000
07
#65000
17
#66000
b0001 "
b00000000000000000000000000000000000000000000000000000000000000000000000000000000000000000000000000000000000000000000000000000000 #
b000000000000000000100000 '
b1011 *
b0000 +
b00000000000000000000000000000000000000000000000000000000000000000000000000000000000000000000000000000000000000000000000000000000 ,
b00000010 2
04
b0000 5
b1110 6
b00000000000000000000000000001000 9
#70000
07
#75000
17
#76000
b000000000000000000000000 '
b1111 *
b0001 +
b00000000 2
b0001 5
b1111 6
b00000000000000000000000000001001 9
#80000
07
#85000
17
#86000
b1111 "
b01000100010001000100010001000100001100110011001100110011001100110010001000100010001000100010001000010001000100010001000100010001 #
b110100100011010010000001 '
b1111 +
b01000100010001000100010001000100001100110011001100110011001100110010001000100010001000100010001000010001000100010001000100010001 ,
b0100001100100001 0
b11100100 2
b11 3
14
b1111 5
b00000000000000000000000000001010 9
#90000
07
#95000
17
#96000
b000100000011000010000001 '
b0001 +
b00000000000000000000000000000000000000000000000000000000000000000000000000000000000000000000000000010001000100010001000100010001 ,
b0000000000000001 0
b00000000 2
b00 3
04
b0001 5
b0001 6
b00000000000000000000000000001011 9
#100000
07
#105000
17
#106000
b0111 "
b00000000000000000000000000000000110011001100110011001100110011001011101110111011101110111011101110101010101010101010101010101010 #
b000000100011010010000001 '
b1101 *
b0101 +
b00000000000000000000000000000000110011001100110011001100110011000000000000000000000000000000000010101010101010101010101010101010 ,
b0000001100000001 0
b00100100 2
b0101 5
b1101 6
b00000000000000000000000000001100 9
