banked_sram_ctrl/sim/build/NUM_BANKS_4_BANK_DEPTH_256_DATA_WIDTH_8_ADDR_WIDTH_10_NUM_REQ_PORTS_4_QUEUE_DEPTH_4_ID_WIDTH_4/unit/waves/bank_scheduler.vcd
$version Generated by VerilatedVcd $end
$timescale 1ps $end
 $scope module sram_ctrl_pkg $end
  $var wire 32 C NUM_BANKS [31:0] $end
  $var wire 32 E BANK_DEPTH [31:0] $end
  $var wire 32 B DATA_WIDTH [31:0] $end
  $var wire 32 F ADDR_WIDTH [31:0] $end
  $var wire 32 C NUM_REQ_PORTS [31:0] $end
  $var wire 32 C QUEUE_DEPTH [31:0] $end
  $var wire 32 C ID_WIDTH [31:0] $end
  $var wire 32 @ BANK_SEL_BITS [31:0] $end
  $var wire 32 A BANK_ADDR_BITS [31:0] $end
  $var wire 32 @ PORT_ID_BITS [31:0] $end
  $var wire 32 D TOTAL_ID_BITS [31:0] $end
  $var wire 32 C STROBE_WIDTH [31:0] $end
 $upscope $end
 $scope module tb_bank_scheduler $end
  $var wire 32 ? ADDR_WIDTH [31:0] $end
  $var wire 32 @ BANK_SEL_BITS [31:0] $end
  $var wire 32 A BANK_ADDR_BITS [31:0] $end
  $var wire 32 B DATA_WIDTH [31:0] $end
  $var wire 32 C STROBE_WIDTH [31:0] $end
  $var wire 32 D TOTAL_ID_BITS [31:0] $end
  $var wire 32 C NUM_REQ_PORTS [31:0] $end
  $var wire 32 @ PORT_ID_BITS [31:0] $end
  $var wire 1 : clk $end
  $var wire 1 " rst_n $end
  $var wire 1 # grant_valid $end
  $var wire 12 $ grant_addr [11:0] $end
  $var wire 32 % grant_data [31:0] $end
  $var wire 4 & grant_strobe [3:0] $end
  $var wire 1 ' grant_we $end
  $var wire 6 ( grant_id [5:0] $end
  $var wire 1 ; grant_ready $end
  $var wire 1 , sram_we $end
  $var wire 8 - sram_addr [7:0] $end
  $var wire 32 . sram_wdata [31:0] $end
  $var wire 4 / sram_bwe [3:0] $end
  $var wire 32 ) sram_rdata [31:0] $end
  $var wire 1 0 pp1_valid $end
  $var wire 32 1 pp1_rdata [31:0] $end
  $var wire 6 2 pp1_id [5:0] $end
  $var wire 1 3 pp1_we $end
  $var wire 1 4 pp1_err $end
  $var wire 1 * bank_pp1_ready $end
  $var wire 32 < error_count [31:0] $end
  $var wire 32 = test_id [31:0] $end
  $scope module dut $end
   $var wire 32 ? ADDR_WIDTH [31:0] $end
   $var wire 32 @ BANK_SEL_BITS [31:0] $end
   $var wire 32 A BANK_ADDR_BITS [31:0] $end
   $var wire 32 B DATA_WIDTH [31:0] $end
   $var wire 32 C STROBE_WIDTH [31:0] $end
   $var wire 32 D TOTAL_ID_BITS [31:0] $end
   $var wire 32 C NUM_REQ_PORTS [31:0] $end
   $var wire 32 @ PORT_ID_BITS [31:0] $end
   $var wire 1 : clk $end
   $var wire 1 " rst_n $end
   $var wire 1 # grant_valid $end
   $var wire 12 $ grant_addr [11:0] $end
   $var wire 32 % grant_data [31:0] $end
   $var wire 4 & grant_strobe [3:0] $end
   $var wire 1 ' grant_we $end
   $var wire 6 ( grant_id [5:0] $end
   $var wire 1 ; grant_ready $end
   $var wire 1 , sram_we $end
   $var wire 8 - sram_addr [7:0] $end
   $var wire 32 . sram_wdata [31:0] $end
   $var wire 4 / sram_bwe [3:0] $end
   $var wire 32 ) sram_rdata [31:0] $end
   $var wire 1 0 pp1_valid $end
   $var wire 32 1 pp1_rdata [31:0] $end
   $var wire 6 2 pp1_id [5:0] $end
   $var wire 1 3 pp1_we $end
   $var wire 1 4 pp1_err $end
   $var wire 1 * bank_pp1_ready $end
   $var wire 1 5 pp0_valid $end
   $var wire 8 - pp0_addr [7:0] $end
   $var wire 32 . pp0_data [31:0] $end
   $var wire 4 6 pp0_strobe [3:0] $end
   $var wire 1 7 pp0_we $end
   $var wire 6 8 pp0_id [5:0] $end
   $var wire 1 9 pp0_err $end
   $var wire 1 + addr_oob $end
   $var wire 1 > pp1_ready $end
  $upscope $end
 $upscope $end
 $scope module verif_pkg $end
  $var wire 32 C NUM_BANKS [31:0] $end
  $var wire 32 E BANK_DEPTH [31:0] $end
  $var wire 32 B DATA_WIDTH [31:0] $end
  $var wire 32 F ADDR_WIDTH [31:0] $end
  $var wire 32 C NUM_REQ_PORTS [31:0] $end
  $var wire 32 C QUEUE_DEPTH [31:0] $end
  $var wire 32 C ID_WIDTH [31:0] $end
  $var wire 32 C STROBE_WIDTH [31:0] $end
  $var wire 32 @ BANK_SEL_BITS [31:0] $end
  $var wire 32 A BANK_ADDR_BITS [31:0] $end
  $var wire 32 G MAX_ADDR [31:0] $end
  $var wire 32 H CSR_ADDR_W [31:0] $end
  $var wire 32 I OFF_REQ [31:0] $end
  $var wire 32 C OFF_RSP [31:0] $end
  $var wire 32 A OFF_CONF [31:0] $end
  $var wire 32 J OFF_QF [31:0] $end
  $var wire 32 K OFF_IDLE [31:0] $end
 $upscope $end
$enddefinitions $end


#0
0"
0#
b000000000000 $
b00000000000000000000000000000000 %
b1111 &
0'
b000000 (
b00000000000000000000000000000000 )
1*
0+
0,
b00000000 -
b00000000000000000000000000000000 .
b0000 /
00
b00000000000000000000000000000000 1
b000000 2
03
04
05
b0000 6
07
b000000 8
09
0:
1;
b00000000000000000000000000000000 <
b00000000000000000000000000000000 =
1>
b00000000000000000000000000001100 ?
b00000000000000000000000000000010 @
b00000000000000000000000000001000 A
b00000000000000000000000000100000 B
b00000000000000000000000000000100 C
b00000000000000000000000000000110 D
b00000000000000000000000100000000 E
b00000000000000000000000000001010 F
b00000000000000000000001111111111 G
b00000000000000000000000000000101 H
b00000000000000000000000000000000 I
b00000000000000000000000000011000 J
b00000000000000000000000000011100 K
#5000
1:
#10000
0:
#15000
1:
#20000
0:
#25000
1"
b1111 6
1:
#30000
0:
#35000
0"
1:
b00000000000000000000000000000001 =
#40000
0:
#45000
1:
#50000
0:
#55000
1:
#56000
1"
1#
b000010000101 $
b011010 (
b11001010111111101011101010111110 )
b00000000000000000000000000000010 =
#60000
0:
#65000
b00100001 -
b11001010111111101011101010111110 1
15
b011010 8
1:
#66000
0#
#70000
0:
#75000
10
b011010 2
05
1:
#80000
0:
#85000
00
1:
#86000
1#
b000000000100 $
b11011110101011011011111011101111 %
1'
b000000 (
b00000000000000000000000000000000 )
b00000000000000000000000000000011 =
#90000
0:
#95000
1,
b00000001 -
b11011110101011011011111011101111 .
b1111 /
b00000000000000000000000000000000 1
15
17
b000000 8
1:
#96000
0#
#100000
0:
#105000
0,
b0000 /
10
b000000 2
13
05
1:
#106000
1#
b000000001000 $
b10101011110011011110111100010010 %
b0110 &
b00000000000000000000000000000100 =
#110000
0:
#115000
1,
b00000010 -
b10101011110011011110111100010010 .
b0110 /
00
15
b0110 6
1:
#116000
b110000000100 $
b00010010001101000101011001111000 %
b1111 &
1+
b00000000000000000000000000000101 =
#120000
0:
#125000
0,
b00000001 -
b00010010001101000101011001111000 .
b0000 /
10
b1111 6
19
1:
#126000
0#
#130000
0:
#135000
14
05
1:
#136000
1#
b00000000000000000000000000000000 %
0'
b11111111111111111111111111111111 )
b00000000000000000000000000000110 =
#140000
0:
#145000
b00000000000000000000000000000000 .
00
15
07
1:
#146000
0#
#150000
0:
#155000
10
03
05
1:
#156000
1#
b000000000100 $
b00000000000000000000000000000000 )
0+
b00000000000000000000000000000111 =
#160000
0:
#165000
00
15
09
1:
#166000
b000000001000 $
#170000
0:
#175000
b00000010 -
10
04
1:
#176000
0#
0*
0;
0>
#180000
0:
#185000
1:
#190000
0:
#195000
1:
#196000
b000000000000 $
1*
1;
b00000000000000000000000000001000 =
1>
#200000
0:
#205000
b00000000 -
05
1:
#210000
0:
#215000
00
1:
#216000
1#
b000000000100 $
#220000
0:
#225000
b00000001 -
15
1:
#226000
0#
#230000
0:
#235000
10
05
1:
#236000
1#
b000000010000 $
b00000000000000000000000000001001 =
#240000
0:
#245000
b00000100 -
00
15
1:
#246000
b000000010100 $
#250000
0:
#255000
b00000101 -
10
1:
#256000
0#
0*
0;
0>
#260000
0:
#265000
1:
#270000
0:
#275000
1:
#280000
0:
#285000
1:
#286000
1#
b000000000100 $
b000001 (
1*
1;
b00000000000000000000000000001010 =
1>
#290000
0:
#295000
b00000001 -
b000001 8
1:
#296000
0#
#300000
0:
#305000
b000001 2
05
1:
#310000
0:
#315000
00
1:
#316000
1#
b11011010110110100000000000000001 )
b00000000000000000000000000001011 =
#320000
0:
#325000
b11011010110110100000000000000001 1
15
1:
#326000
b000000001000 $
b000010 (
#330000
0:
#335000
b00000010 -
10
b000010 8
1:
#336000
0#
b11011010110110100000000000000010 )
#340000
0:
#345000
b11011010110110100000000000000010 1
b000010 2
05
1:
#346000
1#
b000000100000 $
b10111110111011110000000000000000 %
1'
b000000 (
b10101010101010101010101010101010 )
b00000000000000000000000000001100 =
#350000
0:
#355000
1,
b00001000 -
b10111110111011110000000000000000 .
b1111 /
00
b10101010101010101010101010101010 1
15
17
b000000 8
1:
#356000
0#
#360000
0:
#365000
0,
b0000 /
10
b000000 2
13
05
1:
