banked_sram_ctrl/sim/build/NUM_BANKS_8_BANK_DEPTH_512_DATA_WIDTH_128_ADDR_WIDTH_12_NUM_REQ_PORTS_8_QUEUE_DEPTH_8_ID_WIDTH_6/unit/waves/rsp_fifo.vcd
$version Generated by VerilatedVcd $end
$timescale 1ps $end
 $scope module sram_ctrl_pkg $end
  $var wire 32 ` NUM_BANKS [31:0] $end
  $var wire 32 b BANK_DEPTH [31:0] $end
  $var wire 32 c DATA_WIDTH [31:0] $end
  $var wire 32 d ADDR_WIDTH [31:0] $end
  $var wire 32 ` NUM_REQ_PORTS [31:0] $end
  $var wire 32 ` QUEUE_DEPTH [31:0] $end
  $var wire 32 ` ID_WIDTH [31:0] $end
  $var wire 32 a BANK_SEL_BITS [31:0] $end
  $var wire 32 e BANK_ADDR_BITS [31:0] $end
  $var wire 32 a PORT_ID_BITS [31:0] $end
  $var wire 32 f TOTAL_ID_BITS [31:0] $end
  $var wire 32 ` STROBE_WIDTH [31:0] $end
 $upscope $end
 $scope module tb_rsp_fifo $end
  $var wire 32 _ DATA_WIDTH [31:0] $end
  $var wire 32 ` QUEUE_DEPTH [31:0] $end
  $var wire 1 \ clk $end
  $var wire 1 " rst_n $end
  $var wire 1 # push_valid $end
  $var wire 1 K push_ready $end
  $var wire 64 $ push_data [63:0] $end
  $var wire 1 L pop_valid $end
  $var wire 1 & pop_ready $end
  $var wire 64 M pop_data [63:0] $end
  $var wire 1 O full $end
  $var wire 1 P empty $end
  $var wire 64 ' A [63:0] $end
  $var wire 64 ) B [63:0] $end
  $var wire 64 + D0 [63:0] $end
  $var wire 64 - D1 [63:0] $end
  $var wire 64 / D2 [63:0] $end
  $var wire 64 1 D3 [63:0] $end
  $var wire 64 3 D4 [63:0] $end
  $var wire 64 5 D5 [63:0] $end
  $var wire 64 7 D6 [63:0] $end
  $var wire 64 9 D7 [63:0] $end
  $var wire 64 ; observed[0] [63:0] $end
  $var wire 64 = observed[1] [63:0] $end
  $var wire 64 ? observed[2] [63:0] $end
  $var wire 64 A observed[3] [63:0] $end
  $var wire 64 C observed[4] [63:0] $end
  $var wire 64 E observed[5] [63:0] $end
  $var wire 64 G observed[6] [63:0] $end
  $var wire 64 I observed[7] [63:0] $end
  $var wire 32 ] error_count [31:0] $end
  $var wire 32 ^ test_id [31:0] $end
  $scope module dut $end
   $var wire 32 _ DATA_WIDTH [31:0] $end
   $var wire 32 ` QUEUE_DEPTH [31:0] $end
   $var wire 1 \ clk $end
   $var wire 1 " rst_n $end
   $var wire 1 # push_valid $end
   $var wire 1 K push_ready $end
   $var wire 64 $ push_data [63:0] $end
   $var wire 1 L pop_valid $end
   $var wire 1 & pop_ready $end
   $var wire 64 M pop_data [63:0] $end
   $var wire 1 O full $end
   $var wire 1 P empty $end
   $var wire 32 a ptr_width [31:0] $end
   $var wire 64 Q fifo_mem[0] [63:0] $end
   $var wire 64 S fifo_mem[1] [63:0] $end
   $var wire 64 U fifo_mem[2] [63:0] $end
   $var wire 64 W fifo_mem[3] [63:0] $end
   $var wire 2 Y wr_ptr [1:0] $end
   $var wire 2 Z rd_ptr [1:0] $end
   $var wire 3 [ occupancy [2:0] $end
  $upscope $end
 $upscope $end
 $scope module verif_pkg $end
  $var wire 32 ` NUM_BANKS [31:0] $end
  $var wire 32 b BANK_DEPTH [31:0] $end
  $var wire 32 c DATA_WIDTH [31:0] $end
  $var wire 32 d ADDR_WIDTH [31:0] $end
  $var wire 32 ` NUM_REQ_PORTS [31:0] $end
  $var wire 32 ` QUEUE_DEPTH [31:0] $end
  $var wire 32 ` ID_WIDTH [31:0] $end
  $var wire 32 ` STROBE_WIDTH [31:0] $end
  $var wire 32 a BANK_SEL_BITS [31:0] $end
  $var wire 32 e BANK_ADDR_BITS [31:0] $end
  $var wire 32 g MAX_ADDR [31:0] $end
  $var wire 32 h CSR_ADDR_W [31:0] $end
  $var wire 32 i OFF_REQ [31:0] $end
  $var wire 32 ` OFF_RSP [31:0] $end
  $var wire 32 e OFF_CONF [31:0] $end
  $var wire 32 j OFF_QF [31:0] $end
  $var wire 32 k OFF_IDLE [31:0] $end
 $upscope $end
$enddefinitions $end


#0
1"
0#
b0000000000000000000000000000000000000000000000000000000000000000 $
0&
b0000000000000000000000000000000000000000000000000000000000000000 '
b0000000000000000000000000000000000000000000000000000000000000000 )
b0000000000000000000000000000000000000000000000000000000000000000 +
b0000000000000000000000000000000000000000000000000000000000000000 -
b0000000000000000000000000000000000000000000000000000000000000000 /
b0000000000000000000000000000000000000000000000000000000000000000 1
b0000000000000000000000000000000000000000000000000000000000000000 3
b0000000000000000000000000000000000000000000000000000000000000000 5
b0000000000000000000000000000000000000000000000000000000000000000 7
b0000000000000000000000000000000000000000000000000000000000000000 9
b0000000000000000000000000000000000000000000000000000000000000000 ;
b0000000000000000000000000000000000000000000000000000000000000000 =
b0000000000000000000000000000000000000000000000000000000000000000 ?
b0000000000000000000000000000000000000000000000000000000000000000 A
b0000000000000000000000000000000000000000000000000000000000000000 C
b0000000000000000000000000000000000000000000000000000000000000000 E
b0000000000000000000000000000000000000000000000000000000000000000 G
b0000000000000000000000000000000000000000000000000000000000000000 I
1K
0L
b0000000000000000000000000000000000000000000000000000000000000000 M
0O
1P
b0000000000000000000000000000000000000000000000000000000000000000 Q
b0000000000000000000000000000000000000000000000000000000000000000 S
b0000000000000000000000000000000000000000000000000000000000000000 U
b0000000000000000000000000000000000000000000000000000000000000000 W
b00 Y
b00 Z
b000 [
0\
b00000000000000000000000000000000 ]
b00000000000000000000000000000000 ^
b00000000000000000000000001000000 _
b00000000000000000000000000000100 `
b00000000000000000000000000000010 a
b00000000000000000000000100000000 b
b00000000000000000000000000100000 c
b00000000000000000000000000001010 d
b00000000000000000000000000001000 e
b00000000000000000000000000000110 f
b00000000000000000000001111111111 g
b00000000000000000000000000000101 h
b00000000000000000000000000000000 i
b00000000000000000000000000011000 j
b00000000000000000000000000011100 k
#5000
1\
#6000
0"
b00000000000000000000000000000001 ^
#10000
0\
#15000
1\
#16000
1"
#20000
0\
#25000
1\
#26000
0"
b00000000000000000000000000000010 ^
#30000
0\
#35000
1\
#36000
1"
#40000
0\
#45000
1\
#46000
1#
b0000000000000000000000000000000000000000000000000000000000000001 $
#50000
0\
#55000
1L
b0000000000000000000000000000000000000000000000000000000000000001 M
0P
b0000000000000000000000000000000000000000000000000000000000000001 Q
b01 Y
b001 [
1\
#56000
b0000000000000000000000000000000000000000000000000000000000000010 $
#60000
0\
#65000
b0000000000000000000000000000000000000000000000000000000000000010 S
b10 Y
b010 [
1\
#66000
b0000000000000000000000000000000000000000000000000000000000000011 $
#70000
0\
#75000
b0000000000000000000000000000000000000000000000000000000000000011 U
b11 Y
b011 [
1\
#76000
b0000000000000000000000000000000000000000000000000000000000000100 $
#80000
0\
#85000
0K
1O
b0000000000000000000000000000000000000000000000000000000000000100 W
b00 Y
b100 [
1\
#86000
0"
0#
b0000000000000000000000000000000000000000000000000000000000000000 $
1K
0L
0O
1P
b000 [
b00000000000000000000000000000011 ^
#90000
0\
#95000
1\
#96000
1"
#100000
0\
#105000
1\
#106000
1#
b0000000000000000000000000000000000000000000000000000000000010000 $
#110000
0\
#115000
1L
b0000000000000000000000000000000000000000000000000000000000010000 M
0P
b0000000000000000000000000000000000000000000000000000000000010000 Q
b01 Y
b001 [
1\
#116000
b0000000000000000000000000000000000000000000000000000000000100000 $
#120000
0\
#125000
b0000000000000000000000000000000000000000000000000000000000100000 S
b10 Y
b010 [
1\
#126000
b0000000000000000000000000000000000000000000000000000000000110000 $
#130000
0\
#135000
b0000000000000000000000000000000000000000000000000000000000110000 U
b11 Y
b011 [
1\
#136000
b0000000000000000000000000000000000000000000000000000000001000000 $
#140000
0\
#145000
0K
1O
b0000000000000000000000000000000000000000000000000000000001000000 W
b00 Y
b100 [
1\
#146000
0#
b0000000000000000000000000000000000000000000000000000000000000000 $
1&
#150000
0\
#155000
1K
b0000000000000000000000000000000000000000000000000000000000100000 M
0O
b01 Z
b011 [
1\
#156000
0"
0&
0L
b0000000000000000000000000000000000000000000000000000000000010000 M
1P
b00 Z
b000 [
b00000000000000000000000000000100 ^
#160000
0\
#165000
1\
#166000
1"
#170000
0\
#175000
1\
#176000
1#
b0000000000000000000000000000000000000000000000000000000000010000 $
#180000
0\
#185000
1L
0P
b01 Y
b001 [
1\
#186000
b0000000000000000000000000000000000000000000000000000000000100000 $
#190000
0\
#195000
b10 Y
b010 [
1\
#196000
b0000000000000000000000000000000000000000000000000000000000110000 $
#200000
0\
#205000
b11 Y
b011 [
1\
#206000
b0000000000000000000000000000000000000000000000000000000001000000 $
#210000
0\
#215000
0K
1O
b00 Y
b100 [
1\
#216000
b0000000000000000000000000000000000000000000000001101111010101101 $
#220000
0\
#225000
1\
#226000
0#
b0000000000000000000000000000000000000000000000000000000000000000 $
1&
b0000000000000000000000000000000000000000000000000000000000010000 ;
#230000
0\
#235000
1K
b0000000000000000000000000000000000000000000000000000000000100000 M
0O
b01 Z
b011 [
1\
#236000
b0000000000000000000000000000000000000000000000000000000000100000 =
#240000
0\
#245000
b0000000000000000000000000000000000000000000000000000000000110000 M
b10 Z
b010 [
1\
#246000
b0000000000000000000000000000000000000000000000000000000000110000 ?
#250000
0\
#255000
b0000000000000000000000000000000000000000000000000000000001000000 M
b11 Z
b001 [
1\
#256000
b0000000000000000000000000000000000000000000000000000000001000000 A
#260000
0\
#265000
0L
b0000000000000000000000000000000000000000000000000000000000010000 M
1P
b00 Z
b000 [
1\
#266000
0"
0&
b00000000000000000000000000000101 ^
#270000
0\
#275000
1\
#276000
1"
#280000
0\
#285000
1\
#286000
1#
b0000000000000000000000000000000000000000000000000000000010101011 $
b0000000000000000000000000000000000000000000000000000000010101011 '
#290000
0\
#295000
1L
b0000000000000000000000000000000000000000000000000000000010101011 M
0P
b0000000000000000000000000000000000000000000000000000000010101011 Q
b01 Y
b001 [
1\
#296000
0"
0#
b0000000000000000000000000000000000000000000000000000000000000000 $
0L
1P
b00 Y
b000 [
b00000000000000000000000000000110 ^
#300000
0\
#305000
1\
#306000
1"
#310000
0\
#315000
1\
#316000
1#
b0000000000000000000000000000000000000000000000000000000001010101 $
#320000
0\
#325000
1L
b0000000000000000000000000000000000000000000000000000000001010101 M
0P
b0000000000000000000000000000000000000000000000000000000001010101 Q
b01 Y
b001 [
1\
#326000
0#
b0000000000000000000000000000000000000000000000000000000000000000 $
1&
#330000
0\
#335000
0L
b0000000000000000000000000000000000000000000000000000000000100000 M
1P
b01 Z
b000 [
1\
#336000
0"
0&
b0000000000000000000000000000000000000000000000000000000001010101 M
b00 Y
b00 Z
b00000000000000000000000000000111 ^
#340000
0\
#345000
1\
#346000
1"
#350000
0\
#355000
1\
#356000
1#
b0000000000000000000000000000000000000000000000000000000000010001 $
b0000000000000000000000000000000000000000000000000000000000010001 '
b0000000000000000000000000000000000000000000000000000000000100010 )
#360000
0\
#365000
1L
b0000000000000000000000000000000000000000000000000000000000010001 M
0P
b0000000000000000000000000000000000000000000000000000000000010001 Q
b01 Y
b001 [
1\
#366000
b0000000000000000000000000000000000000000000000000000000000100010 $
#370000
0\
#375000
b0000000000000000000000000000000000000000000000000000000000100010 S
b10 Y
b010 [
1\
#376000
0#
b0000000000000000000000000000000000000000000000000000000000000000 $
1&
#380000
0\
#385000
b0000000000000000000000000000000000000000000000000000000000100010 M
b01 Z
b001 [
1\
#386000
0"
0&
0L
b0000000000000000000000000000000000000000000000000000000000010001 M
1P
b00 Y
b00 Z
b000 [
b00000000000000000000000000001000 ^
#390000
0\
#395000
1\
#396000
1"
#400000
0\
#405000
1\
#406000
1#
b0000000000000000000000000000000000000000000000000000000010101010 $
b0000000000000000000000000000000000000000000000000000000010101010 '
b0000000000000000000000000000000000000000000000000000000010111011 )
#410000
0\
#415000
1L
b0000000000000000000000000000000000000000000000000000000010101010 M
0P
b0000000000000000000000000000000000000000000000000000000010101010 Q
b01 Y
b001 [
1\
#416000
b0000000000000000000000000000000000000000000000000000000010111011 $
1&
#420000
0\
#425000
b0000000000000000000000000000000000000000000000000000000010111011 M
b0000000000000000000000000000000000000000000000000000000010111011 S
b10 Y
b01 Z
1\
#426000
0"
0#
b0000000000000000000000000000000000000000000000000000000000000000 $
0&
0L
b0000000000000000000000000000000000000000000000000000000010101010 M
1P
b00 Y
b00 Z
b000 [
b00000000000000000000000000001001 ^
#430000
0\
#435000
1\
#436000
1"
#440000
0\
#445000
1\
#446000
1#
b0000000000000000000000000000000000000000000000000000000000010000 $
#450000
0\
#455000
1L
b0000000000000000000000000000000000000000000000000000000000010000 M
0P
b0000000000000000000000000000000000000000000000000000000000010000 Q
b01 Y
b001 [
1\
#456000
b0000000000000000000000000000000000000000000000000000000000100000 $
#460000
0\
#465000
b0000000000000000000000000000000000000000000000000000000000100000 S
b10 Y
b010 [
1\
#466000
b0000000000000000000000000000000000000000000000000000000000110000 $
#470000
0\
#475000
b11 Y
b011 [
1\
#476000
b0000000000000000000000000000000000000000000000000000000001000000 $
#480000
0\
#485000
0K
1O
b00 Y
b100 [
1\
#486000
b0000000000000000000000000000000000000000000000000000000011001100 $
1&
#490000
0\
#495000
1K
b0000000000000000000000000000000000000000000000000000000000100000 M
0O
b01 Z
b011 [
1\
#496000
0"
0#
b0000000000000000000000000000000000000000000000000000000000000000 $
0&
0L
b0000000000000000000000000000000000000000000000000000000000010000 M
1P
b00 Z
b000 [
b00000000000000000000000000001010 ^
#500000
0\
#505000
1\
#506000
1"
#510000
0\
#515000
1\
#516000
1&
#520000
0\
#525000
1\
#530000
0\
#535000
1\
#536000
0"
0&
b00000000000000000000000000001011 ^
#540000
0\
#545000
1\
#546000
1"
#550000
0\
#555000
1\
#556000
1#
b0000000000000000000000000000000000000000000000000000000000010000 $
b0000000000000000000000000000000000000000000000000000000000010000 +
b0000000000000000000000000000000000000000000000000000000000100000 -
b0000000000000000000000000000000000000000000000000000000000110000 /
b0000000000000000000000000000000000000000000000000000000001000000 1
#560000
0\
#565000
1L
0P
b01 Y
b001 [
1\
#566000
b0000000000000000000000000000000000000000000000000000000000100000 $
#570000
0\
#575000
b10 Y
b010 [
1\
#576000
b0000000000000000000000000000000000000000000000000000000000110000 $
#580000
0\
#585000
b11 Y
b011 [
1\
#586000
b0000000000000000000000000000000000000000000000000000000001000000 $
#590000
0\
#595000
0K
1O
b00 Y
b100 [
1\
#596000
0#
b0000000000000000000000000000000000000000000000000000000000000000 $
1&
#600000
0\
#605000
1K
b0000000000000000000000000000000000000000000000000000000000100000 M
0O
b01 Z
b011 [
1\
#610000
0\
#615000
b0000000000000000000000000000000000000000000000000000000000110000 M
b10 Z
b010 [
1\
#620000
0\
#625000
b0000000000000000000000000000000000000000000000000000000001000000 M
b11 Z
b001 [
1\
#630000
0\
#635000
0L
b0000000000000000000000000000000000000000000000000000000000010000 M
1P
b00 Z
b000 [
1\
#636000
0"
0&
b00000000000000000000000000001100 ^
#640000
0\
#645000
1\
#646000
1"
#650000
0\
#655000
1\
#656000
1#
b0000000000000000000000000000000000000000000000000000000000010000 $
b0000000000000000000000000000000000000000000000000000000001010000 3
b0000000000000000000000000000000000000000000000000000000001100000 5
b0000000000000000000000000000000000000000000000000000000001110000 7
b0000000000000000000000000000000000000000000000000000000010000000 9
#660000
0\
#665000
1L
0P
b01 Y
b001 [
1\
#666000
b0000000000000000000000000000000000000000000000000000000000100000 $
#670000
0\
#675000
b10 Y
b010 [
1\
#676000
b0000000000000000000000000000000000000000000000000000000000110000 $
#680000
0\
#685000
b11 Y
b011 [
1\
#686000
b0000000000000000000000000000000000000000000000000000000001000000 $
#690000
0\
#695000
0K
1O
b00 Y
b100 [
1\
#696000
0#
b0000000000000000000000000000000000000000000000000000000000000000 $
1&
#700000
0\
#705000
1K
b0000000000000000000000000000000000000000000000000000000000100000 M
0O
b01 Z
b011 [
1\
#710000
0\
#715000
b0000000000000000000000000000000000000000000000000000000000110000 M
b10 Z
b010 [
1\
#720000
0\
#725000
b0000000000000000000000000000000000000000000000000000000001000000 M
b11 Z
b001 [
1\
#730000
0\
#735000
0L
b0000000000000000000000000000000000000000000000000000000000010000 M
1P
b00 Z
b000 [
1\
#736000
1#
b0000000000000000000000000000000000000000000000000000000001010000 $
0&
#740000
0\
#745000
1L
b0000000000000000000000000000000000000000000000000000000001010000 M
0P
b0000000000000000000000000000000000000000000000000000000001010000 Q
b01 Y
b001 [
1\
#746000
b0000000000000000000000000000000000000000000000000000000001100000 $
#750000
0\
#755000
b0000000000000000000000000000000000000000000000000000000001100000 S
b10 Y
b010 [
1\
#756000
b0000000000000000000000000000000000000000000000000000000001110000 $
#760000
0\
#765000
b0000000000000000000000000000000000000000000000000000000001110000 U
b11 Y
b011 [
1\
#766000
b0000000000000000000000000000000000000000000000000000000010000000 $
#770000
0\
#775000
0K
1O
b0000000000000000000000000000000000000000000000000000000010000000 W
b00 Y
b100 [
1\
#776000
0#
b0000000000000000000000000000000000000000000000000000000000000000 $
1&
b0000000000000000000000000000000000000000000000000000000001010000 C
#780000
0\
#785000
1K
b0000000000000000000000000000000000000000000000000000000001100000 M
0O
b01 Z
b011 [
1\
#786000
b0000000000000000000000000000000000000000000000000000000001100000 E
#790000
0\
#795000
b0000000000000000000000000000000000000000000000000000000001110000 M
b10 Z
b010 [
1\
#796000
b0000000000000000000000000000000000000000000000000000000001110000 G
#800000
0\
#805000
b0000000000000000000000000000000000000000000000000000000010000000 M
b11 Z
b001 [
1\
#806000
b0000000000000000000000000000000000000000000000000000000010000000 I
#810000
0\
#815000
0L
b0000000000000000000000000000000000000000000000000000000001010000 M
1P
b00 Z
b000 [
1\
#816000
0&
