banked_sram_ctrl/sim/build/NUM_BANKS_4_BANK_DEPTH_1024_DATA_WIDTH_32_ADDR_WIDTH_12_NUM_REQ_PORTS_4_QUEUE_DEPTH_4_ID_WIDTH_4/unit/waves/sram_array.vcd
$version Generated by VerilatedVcd $end
$timescale 1ps $end
 $scope module sram_ctrl_pkg $end
  $var wire 32 / NUM_BANKS [31:0] $end
  $var wire 32 + BANK_DEPTH [31:0] $end
  $var wire 32 , DATA_WIDTH [31:0] $end
  $var wire 32 0 ADDR_WIDTH [31:0] $end
  $var wire 32 / NUM_REQ_PORTS [31:0] $end
  $var wire 32 / QUEUE_DEPTH [31:0] $end
  $var wire 32 / ID_WIDTH [31:0] $end
  $var wire 32 1 BANK_SEL_BITS [31:0] $end
  $var wire 32 - BANK_ADDR_BITS [31:0] $end
  $var wire 32 1 PORT_ID_BITS [31:0] $end
  $var wire 32 2 TOTAL_ID_BITS [31:0] $end
  $var wire 32 / STROBE_WIDTH [31:0] $end
 $upscope $end
 $scope module tb_sram_array $end
  $var wire 32 + DEPTH [31:0] $end
  $var wire 32 , DATA_WIDTH [31:0] $end
  $var wire 32 - ADDR_WIDTH [31:0] $end
  $var wire 1 ' clk $end
  $var wire 1 " we $end
  $var wire 8 # addr [7:0] $end
  $var wire 32 $ wdata [31:0] $end
  $var wire 4 % bwe [3:0] $end
  $var wire 32 ( rdata [31:0] $end
  $var wire 32 ) error_count [31:0] $end
  $var wire 32 * test_id [31:0] $end
  $var wire 32 & old_rdata [31:0] $end
  $var wire 32 . expected [31:0] $end
  $scope module dut $end
   $var wire 32 + DEPTH [31:0] $end
   $var wire 32 , DATA_WIDTH [31:0] $end
   $var wire 1 ' clk $end
   $var wire 1 " we $end
   $var wire 8 # addr [7:0] $end
   $var wire 32 $ wdata [31:0] $end
   $var wire 4 % bwe [3:0] $end
   $var wire 32 ( rdata [31:0] $end
  $upscope $end
 $upscope $end
 $scope module verif_pkg $end
  $var wire 32 / NUM_BANKS [31:0] $end
  $var wire 32 + BANK_DEPTH [31:0] $end
  $var wire 32 , DATA_WIDTH [31:0] $end
  $var wire 32 0 ADDR_WIDTH [31:0] $end
  $var wire 32 / NUM_REQ_PORTS [31:0] $end
  $var wire 32 / QUEUE_DEPTH [31:0] $end
  $var wire 32 / ID_WIDTH [31:0] $end
  $var wire 32 / STROBE_WIDTH [31:0] $end
  $var wire 32 1 BANK_SEL_BITS [31:0] $end
  $var wire 32 - BANK_ADDR_BITS [31:0] $end
  $var wire 32 3 MAX_ADDR [31:0] $end
  $var wire 32 4 CSR_ADDR_W [31:0] $end
  $var wire 32 5 OFF_REQ [31:0] $end
  $var wire 32 / OFF_RSP [31:0] $end
  $var wire 32 - OFF_CONF [31:0] $end
  $var wire 32 6 OFF_QF [31:0] $end
  $var wire 32 7 OFF_IDLE [31:0] $end
 $upscope $end
$enddefinitions $end


#0
0"
b00000000 #
b00000000000000000000000000000000 $
b0000 %
b00000000000000000000000000000000 &
0'
b00000000000000000000000000000000 (
b00000000000000000000000000000000 )
b00000000000000000000000000000000 *
b00000000000000000000000100000000 +
b00000000000000000000000000100000 ,
b00000000000000000000000000001000 -
b00000000000000000000000000000000 .
b00000000000000000000000000000100 /
b00000000000000000000000000001010 0
b00000000000000000000000000000010 1
b00000000000000000000000000000110 2
b00000000000000000000001111111111 3
b00000000000000000000000000000101 4
b00000000000000000000000000000000 5
b00000000000000000000000000011000 6
b00000000000000000000000000011100 7
#5000
1'
#6000
1"
b00000101 #
b11011110101011011011111011101111 $
b1111 %
b00000000000000000000000000000001 *
#10000
0'
#15000
1'
b11011110101011011011111011101111 (
#16000
0"
b00000000000000000000000000000000 $
b0000 %
#20000
0'
#25000
1'
#26000
1"
b11111110 #
b11001010111111101011101010111110 $
b1111 %
b00000000000000000000000000000000 (
b00000000000000000000000000000010 *
#30000
0'
#35000
1'
b11001010111111101011101010111110 (
#36000
0"
b00000000000000000000000000000000 $
b0000 %
#40000
0'
#45000
1'
#46000
1"
b00010000 #
b10101010101010101010101010101010 $
b1111 %
b00000000000000000000000000000000 (
#50000
0'
#55000
1'
b10101010101010101010101010101010 (
#56000
0"
b00000000000000000000000000000000 $
b0000 %
b10101010101010101010101010101010 &
#60000
0'
#65000
1'
#66000
1"
b00100000 #
b00010001000100010001000100010001 $
b1111 %
b00000000000000000000000000000000 (
b00000000000000000000000000000011 *
#70000
0'
#75000
1'
b00010001000100010001000100010001 (
#76000
0"
b11011110101011011100101011111110 $
#80000
0'
#85000
1'
#86000
b0000 %
#90000
0'
#95000
1'
#96000
1"
b00110000 #
b10101010101110111100110011011101 $
b1111 %
b00000000000000000000000000000000 (
b00000000000000000000000000000100 *
#100000
0'
#105000
1'
b10101010101110111100110011011101 (
#106000
b00010010001101000101011001111000 $
b0001 %
#110000
0'
#115000
1'
b10101010101110111100110001111000 (
#116000
0"
b00000000000000000000000000000000 $
b0000 %
#120000
0'
#125000
1'
#126000
1"
b01000000 #
b1111 %
b00000000000000000000000000000000 (
b00000000000000000000000000000101 *
#130000
0'
#135000
1'
#136000
b00000000000000001111111100000000 $
b0010 %
#140000
0'
#145000
1'
b00000000000000001111111100000000 (
#146000
0"
b00000000000000000000000000000000 $
b0000 %
#150000
0'
#155000
1'
#156000
1"
b00000000101010110000000000000000 $
b0100 %
#160000
0'
#165000
1'
b00000000101010111111111100000000 (
#166000
0"
b00000000000000000000000000000000 $
b0000 %
#170000
0'
#175000
1'
#176000
1"
b01010101000000000000000000000000 $
b1000 %
#180000
0'
#185000
1'
b01010101101010111111111100000000 (
#186000
0"
b00000000000000000000000000000000 $
b0000 %
#190000
0'
#195000
1'
#196000
1"
b01010000 #
b00010010001101000101011001111000 $
b1111 %
b00000000000000000000000000000000 (
b00000000000000000000000000000110 *
#200000
0'
#205000
1'
b00010010001101000101011001111000 (
#206000
b11011110101011011101111010101101 $
b0000 %
#210000
0'
#215000
1'
#216000
0"
b00000000000000000000000000000000 $
#220000
0'
#225000
1'
#226000
1"
b00000000 #
b10101010101010101010101010101010 $
b1111 %
b00000000000000000000000000000000 (
b00000000000000000000000000000111 *
#230000
0'
#235000
1'
b10101010101010101010101010101010 (
#236000
b10111011101110111011101110111011 $
#240000
0'
#245000
1'
b10111011101110111011101110111011 (
#246000
0"
b00000000000000000000000000000000 $
b0000 %
#250000
0'
#255000
1'
#256000
1"
b00000001 #
b00010001000100010001000100010001 $
b1111 %
b00000000000000000000000000000000 (
b00000000000000000000000000001000 *
#260000
0'
#265000
1'
b00010001000100010001000100010001 (
#266000
b00000010 #
b00100010001000100010001000100010 $
b00000000000000000000000000000000 (
#270000
0'
#275000
1'
b00100010001000100010001000100010 (
#276000
b00000001 #
b11111111111111111111111111111111 $
b00010001000100010001000100010001 (
#280000
0'
#285000
1'
b11111111111111111111111111111111 (
#286000
0"
b00000010 #
b00000000000000000000000000000000 $
b0000 %
b00100010001000100010001000100010 (
#290000
0'
#295000
1'
#296000
b00000001 #
b11111111111111111111111111111111 (
#300000
0'
#305000
1'
#306000
1"
b01100000 #
b00000000000000001010101010101010 $
b1111 %
b00000000000000000000000000000000 (
b00000000000000000000000000001001 *
#310000
0'
#315000
1'
b00000000000000001010101010101010 (
#316000
b01100001 #
b00000000000000001011101110111011 $
b00000000000000000000000000000000 (
#320000
0'
#325000
1'
b00000000000000001011101110111011 (
#326000
b01100010 #
b00000000000000001100110011001100 $
b00000000000000000000000000000000 (
#330000
0'
#335000
1'
b00000000000000001100110011001100 (
#336000
0"
b01100000 #
b00000000000000000000000000000000 $
b0000 %
b00000000000000001010101010101010 (
#340000
0'
#345000
1'
#346000
b01100001 #
b00000000000000001011101110111011 (
#350000
0'
#355000
1'
#356000
b01100010 #
b00000000000000001100110011001100 (
#360000
0'
#365000
1'
#366000
1"
b00000111 #
b10101010101010101010101010101010 $
b1111 %
b00000000000000000000000000000000 (
b00000000000000000000000000001010 *
#370000
0'
#375000
1'
b10101010101010101010101010101010 (
#376000
b10111011101110111011101110111011 $
#380000
0'
#385000
1'
b10111011101110111011101110111011 (
#386000
0"
b00000000000000000000000000000000 $
b0000 %
#390000
0'
#395000
1'
#396000
1"
b00000000 #
b11011110101011010000000000000000 $
b1111 %
b00000000000000000000000000001011 *
#400000
0'
#405000
1'
b11011110101011010000000000000000 (
#406000
b11111111 #
b11011110101011010000000011111111 $
b00000000000000000000000000000000 (
#410000
0'
#415000
1'
b11011110101011010000000011111111 (
#416000
0"
b00000000 #
b00000000000000000000000000000000 $
b0000 %
b11011110101011010000000000000000 (
#420000
0'
#425000
1'
#426000
b11111111 #
b11011110101011010000000011111111 (
#430000
0'
#435000
1'
#436000
b01111010 #
b00000000000000000000000000000000 (
b00000000000000000000000000001100 *
