banked_sram_ctrl/sim/build/NUM_BANKS_2_BANK_DEPTH_64_DATA_WIDTH_8_ADDR_WIDTH_7_NUM_REQ_PORTS_2_QUEUE_DEPTH_2_ID_WIDTH_2/unit/waves/perf_counter.vcd
$version Generated by VerilatedVcd $end
$timescale 1ps $end
 $scope module sram_ctrl_pkg $end
  $var wire 32 R NUM_BANKS [31:0] $end
  $var wire 32 Y BANK_DEPTH [31:0] $end
  $var wire 32 S DATA_WIDTH [31:0] $end
  $var wire 32 Z ADDR_WIDTH [31:0] $end
  $var wire 32 R NUM_REQ_PORTS [31:0] $end
  $var wire 32 R QUEUE_DEPTH [31:0] $end
  $var wire 32 R ID_WIDTH [31:0] $end
  $var wire 32 [ BANK_SEL_BITS [31:0] $end
  $var wire 32 V BANK_ADDR_BITS [31:0] $end
  $var wire 32 [ PORT_ID_BITS [31:0] $end
  $var wire 32 \ TOTAL_ID_BITS [31:0] $end
  $var wire 32 R STROBE_WIDTH [31:0] $end
 $upscope $end
 $scope module tb_perf_counter $end
  $var wire 32 R NUM_REQ_PORTS [31:0] $end
  $var wire 32 R NUM_BANKS [31:0] $end
  $var wire 32 R ID_WIDTH [31:0] $end
  $var wire 32 S NUM_COUNTERS [31:0] $end
  $var wire 32 T ADDR_WIDTH [31:0] $end
  $var wire 32 U OFF_REQ [31:0] $end
  $var wire 32 R OFF_RSP [31:0] $end
  $var wire 32 V OFF_CONF [31:0] $end
  $var wire 32 W OFF_QF [31:0] $end
  $var wire 32 X OFF_IDLE [31:0] $end
  $var wire 1 N clk $end
  $var wire 1 " rst_n $end
  $var wire 4 # req_accept [3:0] $end
  $var wire 4 $ rsp_issue [3:0] $end
  $var wire 16 % conflict [15:0] $end
  $var wire 4 & req_queue_full [3:0] $end
  $var wire 4 ' bank_idle [3:0] $end
  $var wire 1 ( csr_req $end
  $var wire 5 ) csr_addr [4:0] $end
  $var wire 32 J csr_rdata [31:0] $end
  $var wire 1 K csr_ack $end
  $var wire 32 O error_count [31:0] $end
  $var wire 32 P test_id [31:0] $end
  $var wire 32 Q rdata [31:0] $end
  $scope module dut $end
   $var wire 32 R NUM_REQ_PORTS [31:0] $end
   $var wire 32 R NUM_BANKS [31:0] $end
   $var wire 32 R ID_WIDTH [31:0] $end
   $var wire 1 N clk $end
   $var wire 1 " rst_n $end
   $var wire 4 # req_accept [3:0] $end
   $var wire 4 $ rsp_issue [3:0] $end
   $var wire 16 % conflict [15:0] $end
   $var wire 4 & req_queue_full [3:0] $end
   $var wire 4 ' bank_idle [3:0] $end
   $var wire 1 ( csr_req $end
   $var wire 5 ) csr_addr [4:0] $end
   $var wire 32 J csr_rdata [31:0] $end
   $var wire 1 K csr_ack $end
   $var wire 32 S N_counter [31:0] $end
   $var wire 32 T AW [31:0] $end
   $var wire 32 * counter[0] [31:0] $end
   $var wire 32 + counter[1] [31:0] $end
   $var wire 32 , counter[2] [31:0] $end
   $var wire 32 - counter[3] [31:0] $end
   $var wire 32 . counter[4] [31:0] $end
   $var wire 32 / counter[5] [31:0] $end
   $var wire 32 0 counter[6] [31:0] $end
   $var wire 32 1 counter[7] [31:0] $end
   $var wire 32 2 counter[8] [31:0] $end
   $var wire 32 3 counter[9] [31:0] $end
   $var wire 32 4 counter[10] [31:0] $end
   $var wire 32 5 counter[11] [31:0] $end
   $var wire 32 6 counter[12] [31:0] $end
   $var wire 32 7 counter[13] [31:0] $end
   $var wire 32 8 counter[14] [31:0] $end
   $var wire 32 9 counter[15] [31:0] $end
   $var wire 32 : counter[16] [31:0] $end
   $var wire 32 ; counter[17] [31:0] $end
   $var wire 32 < counter[18] [31:0] $end
   $var wire 32 = counter[19] [31:0] $end
   $var wire 32 > counter[20] [31:0] $end
   $var wire 32 ? counter[21] [31:0] $end
   $var wire 32 @ counter[22] [31:0] $end
   $var wire 32 A counter[23] [31:0] $end
   $var wire 32 B counter[24] [31:0] $end
   $var wire 32 C counter[25] [31:0] $end
   $var wire 32 D counter[26] [31:0] $end
   $var wire 32 E counter[27] [31:0] $end
   $var wire 32 F counter[28] [31:0] $end
   $var wire 32 G counter[29] [31:0] $end
   $var wire 32 H counter[30] [31:0] $end
   $var wire 32 I counter[31] [31:0] $end
   $var wire 32 U OFF_REQ [31:0] $end
   $var wire 32 R OFF_RSP [31:0] $end
   $var wire 32 V OFF_CONF [31:0] $end
   $var wire 32 W OFF_QF [31:0] $end
   $var wire 32 X OFF_IDLE [31:0] $end
   $var wire 32 L i [31:0] $end
   $var wire 32 M b [31:0] $end
  $upscope $end
 $upscope $end
 $scope module verif_pkg $end
  $var wire 32 R NUM_BANKS [31:0] $end
  $var wire 32 Y BANK_DEPTH [31:0] $end
  $var wire 32 S DATA_WIDTH [31:0] $end
  $var wire 32 Z ADDR_WIDTH [31:0] $end
  $var wire 32 R NUM_REQ_PORTS [31:0] $end
  $var wire 32 R QUEUE_DEPTH [31:0] $end
  $var wire 32 R ID_WIDTH [31:0] $end
  $var wire 32 R STROBE_WIDTH [31:0] $end
  $var wire 32 [ BANK_SEL_BITS [31:0] $end
  $var wire 32 V BANK_ADDR_BITS [31:0] $end
  $var wire 32 ] MAX_ADDR [31:0] $end
  $var wire 32 T CSR_ADDR_W [31:0] $end
  $var wire 32 U OFF_REQ [31:0] $end
  $var wire 32 R OFF_RSP [31:0] $end
  $var wire 32 V OFF_CONF [31:0] $end
  $var wire 32 W OFF_QF [31:0] $end
  $var wire 32 X OFF_IDLE [31:0] $end
 $upscope $end
$enddefinitions $end


#0
0"
b0000 #
b0000 $
b0000000000000000 %
b0000 &
b0000 '
0(
b00000 )
b00000000000000000000000000000000 *
b00000000000000000000000000000000 +
b00000000000000000000000000000000 ,
b00000000000000000000000000000000 -
b00000000000000000000000000000000 .
b00000000000000000000000000000000 /
b00000000000000000000000000000000 0
b00000000000000000000000000000000 1
b00000000000000000000000000000000 2
b00000000000000000000000000000000 3
b00000000000000000000000000000000 4
b00000000000000000000000000000000 5
b00000000000000000000000000000000 6
b00000000000000000000000000000000 7
b00000000000000000000000000000000 8
b00000000000000000000000000000000 9
b00000000000000000000000000000000 :
b00000000000000000000000000000000 ;
b00000000000000000000000000000000 <
b00000000000000000000000000000000 =
b00000000000000000000000000000000 >
b00000000000000000000000000000000 ?
b00000000000000000000000000000000 @
b00000000000000000000000000000000 A
b00000000000000000000000000000000 B
b00000000000000000000000000000000 C
b00000000000000000000000000000000 D
b00000000000000000000000000000000 E
b00000000000000000000000000000000 F
b00000000000000000000000000000000 G
b00000000000000000000000000000000 H
b00000000000000000000000000000000 I
b00000000000000000000000000000000 J
0K
b00000000000000000000000000000000 L
b00000000000000000000000000000000 M
0N
b00000000000000000000000000000000 O
b00000000000000000000000000000000 P
b00000000000000000000000000000000 Q
b00000000000000000000000000000100 R
b00000000000000000000000000100000 S
b00000000000000000000000000000101 T
b00000000000000000000000000000000 U
b00000000000000000000000000001000 V
b00000000000000000000000000011000 W
b00000000000000000000000000011100 X
b00000000000000000000000100000000 Y
b00000000000000000000000000001010 Z
b00000000000000000000000000000010 [
b00000000000000000000000000000110 \
b00000000000000000000001111111111 ]
#5000
b00000000000000000000000000100000 L
1N
#10000
0N
#15000
1N
#20000
0N
#25000
1"
b00000000000000000000000000000100 L
b00000000000000000000000000000100 M
1N
#30000
0N
#35000
1N
b00000000000000000000000000000001 P
#40000
0N
#45000
1(
1K
1N
#50000
0N
#55000
1N
#60000
0N
#65000
0(
0K
1N
#70000
0N
#75000
1N
#80000
0N
#85000
1(
b00001 )
1K
1N
#90000
0N
#95000
1N
#100000
0N
#105000
0(
b00000 )
0K
1N
#110000
0N
#115000
1N
#120000
0N
#125000
1(
b00010 )
1K
1N
#130000
0N
#135000
1N
#140000
0N
#145000
0(
b00000 )
0K
1N
#150000
0N
#155000
1N
#160000
0N
#165000
1(
b00011 )
1K
1N
#170000
0N
#175000
1N
#180000
0N
#185000
0(
b00000 )
0K
1N
#190000
0N
#195000
1N
#200000
0N
#205000
1(
b00100 )
1K
1N
#210000
0N
#215000
1N
#220000
0N
#225000
0(
b00000 )
0K
1N
#230000
0N
#235000
1N
#240000
0N
#245000
1(
b00101 )
1K
1N
#250000
0N
#255000
1N
#260000
0N
#265000
0(
b00000 )
0K
1N
#270000
0N
#275000
1N
#280000
0N
#285000
1(
b00110 )
1K
1N
#290000
0N
#295000
1N
#300000
0N
#305000
0(
b00000 )
0K
1N
#310000
0N
#315000
1N
#320000
0N
#325000
1(
b00111 )
1K
1N
#330000
0N
#335000
1N
#340000
0N
#345000
0(
b00000 )
0K
1N
#350000
0N
#355000
1N
#360000
0N
#365000
1(
b01000 )
1K
1N
#370000
0N
#375000
1N
#380000
0N
#385000
0(
b00000 )
0K
1N
#390000
0N
#395000
1N
#400000
0N
#405000
1(
b01001 )
1K
1N
#410000
0N
#415000
1N
#420000
0N
#425000
0(
b00000 )
0K
1N
#430000
0N
#435000
1N
#440000
0N
#445000
1(
b01010 )
1K
1N
#450000
0N
#455000
1N
#460000
0N
#465000
0(
b00000 )
0K
1N
#470000
0N
#475000
1N
#480000
0N
#485000
1(
b01011 )
1K
1N
#490000
0N
#495000
1N
#500000
0N
#505000
0(
b00000 )
0K
1N
#510000
0N
#515000
1N
#520000
0N
#525000
1(
b01100 )
1K
1N
#530000
0N
#535000
1N
#540000
0N
#545000
0(
b00000 )
0K
1N
#550000
0N
#555000
1N
#560000
0N
#565000
1(
b01101 )
1K
1N
#570000
0N
#575000
1N
#580000
0N
#585000
0(
b00000 )
0K
1N
#590000
0N
#595000
1N
#600000
0N
#605000
1(
b01110 )
1K
1N
#610000
0N
#615000
1N
#620000
0N
#625000
0(
b00000 )
0K
1N
#630000
0N
#635000
1N
#640000
0N
#645000
1(
b01111 )
1K
1N
#650000
0N
#655000
1N
#660000
0N
#665000
0(
b00000 )
0K
1N
#670000
0N
#675000
1N
#680000
0N
#685000
1(
b10000 )
1K
1N
#690000
0N
#695000
1N
#700000
0N
#705000
0(
b00000 )
0K
1N
#710000
0N
#715000
1N
#720000
0N
#725000
1(
b10001 )
1K
1N
#730000
0N
#735000
1N
#740000
0N
#745000
0(
b00000 )
0K
1N
#750000
0N
#755000
1N
#760000
0N
#765000
1(
b10010 )
1K
1N
#770000
0N
#775000
1N
#780000
0N
#785000
0(
b00000 )
0K
1N
#790000
0N
#795000
1N
#800000
0N
#805000
1(
b10011 )
1K
1N
#810000
0N
#815000
1N
#820000
0N
#825000
0(
b00000 )
0K
1N
#830000
0N
#835000
1N
#840000
0N
#845000
1(
b10100 )
1K
1N
#850000
0N
#855000
1N
#860000
0N
#865000
0(
b00000 )
0K
1N
#870000
0N
#875000
1N
#880000
0N
#885000
1(
b10101 )
1K
1N
#890000
0N
#895000
1N
#900000
0N
#905000
0(
b00000 )
0K
1N
#910000
0N
#915000
1N
#920000
0N
#925000
1(
b10110 )
1K
1N
#930000
0N
#935000
1N
#940000
0N
#945000
0(
b00000 )
0K
1N
#950000
0N
#955000
1N
#960000
0N
#965000
1(
b10111 )
1K
1N
#970000
0N
#975000
1N
#980000
0N
#985000
0(
b00000 )
0K
1N
#990000
0N
#995000
1N
#1000000
0N
#1005000
1(
b11000 )
1K
1N
#1010000
0N
#1015000
1N
#1020000
0N
#1025000
0(
b00000 )
0K
1N
#1030000
0N
#1035000
1N
#1040000
0N
#1045000
1(
b11001 )
1K
1N
#1050000
0N
#1055000
1N
#1060000
0N
#1065000
0(
b00000 )
0K
1N
#1070000
0N
#1075000
1N
#1080000
0N
#1085000
1(
b11010 )
1K
1N
#1090000
0N
#1095000
1N
#1100000
0N
#1105000
0(
b00000 )
0K
1N
#1110000
0N
#1115000
1N
#1120000
0N
#1125000
1(
b11011 )
1K
1N
#1130000
0N
#1135000
1N
#1140000
0N
#1145000
0(
b00000 )
0K
1N
#1150000
0N
#1155000
1N
#1160000
0N
#1165000
1(
b11100 )
1K
1N
#1170000
0N
#1175000
1N
#1180000
0N
#1185000
0(
b00000 )
0K
1N
#1190000
0N
#1195000
1N
#1200000
0N
#1205000
1(
b11101 )
1K
1N
#1210000
0N
#1215000
1N
#1220000
0N
#1225000
0(
b00000 )
0K
1N
#1230000
0N
#1235000
1N
#1240000
0N
#1245000
1(
b11110 )
1K
1N
#1250000
0N
#1255000
1N
#1260000
0N
#1265000
0(
b00000 )
0K
1N
#1270000
0N
#1275000
1N
#1280000
0N
#1285000
1(
b11111 )
1K
1N
#1290000
0N
#1295000
1N
#1300000
0N
#1305000
0(
b00000 )
0K
1N
#1310000
0N
#1315000
1N
b00000000000000000000000000000010 P
#1320000
0N
#1325000
0"
b00000000000000000000000000100000 L
1N
#1330000
0N
#1335000
1N
#1340000
0N
#1345000
1"
b00000000000000000000000000000100 L
1N
#1350000
0N
#1355000
1N
#1360000
0N
#1365000
b0100 #
b00000000000000000000000000000001 ,
1N
#1370000
0N
#1375000
b00000000000000000000000000000010 ,
1N
#1380000
0N
#1385000
b00000000000000000000000000000011 ,
1N
#1390000
0N
#1395000
b0000 #
1N
#1400000
0N
#1405000
1N
#1410000
0N
#1415000
1(
1K
1N
#1420000
0N
#1425000
1N
#1430000
0N
#1435000
0(
0K
1N
#1440000
0N
#1445000
1N
#1450000
0N
#1455000
1(
b00001 )
1K
1N
#1460000
0N
#1465000
1N
#1470000
0N
#1475000
0(
b00000 )
0K
1N
#1480000
0N
#1485000
1N
#1490000
0N
#1495000
1(
b00010 )
b00000000000000000000000000000011 J
1K
1N
#1500000
0N
#1505000
1N
b00000000000000000000000000000011 Q
#1510000
0N
#1515000
0(
b00000 )
0K
1N
#1520000
0N
#1525000
1N
#1530000
0N
#1535000
1(
b00011 )
b00000000000000000000000000000000 J
1K
1N
#1540000
0N
#1545000
1N
b00000000000000000000000000000000 Q
#1550000
0N
#1555000
0(
b00000 )
0K
1N
#1560000
0N
#1565000
1N
#1570000
0N
#1575000
1(
b00100 )
1K
1N
#1580000
0N
#1585000
1N
#1590000
0N
#1595000
0(
b00000 )
0K
1N
#1600000
0N
#1605000
1N
#1610000
0N
#1615000
1(
b00101 )
1K
1N
#1620000
0N
#1625000
1N
#1630000
0N
#1635000
0(
b00000 )
0K
1N
#1640000
0N
#1645000
1N
#1650000
0N
#1655000
1(
b00110 )
1K
1N
#1660000
0N
#1665000
1N
#1670000
0N
#1675000
0(
b00000 )
0K
1N
#1680000
0N
#1685000
1N
#1690000
0N
#1695000
1(
b00111 )
1K
1N
#1700000
0N
#1705000
1N
#1710000
0N
#1715000
0(
b00000 )
0K
1N
#1720000
0N
#1725000
1N
#1730000
0N
#1735000
1(
b01000 )
1K
1N
#1740000
0N
#1745000
1N
#1750000
0N
#1755000
0(
b00000 )
0K
1N
#1760000
0N
#1765000
1N
#1770000
0N
#1775000
1(
b01001 )
1K
1N
#1780000
0N
#1785000
1N
#1790000
0N
#1795000
0(
b00000 )
0K
1N
#1800000
0N
#1805000
1N
#1810000
0N
#1815000
1(
b01010 )
1K
1N
#1820000
0N
#1825000
1N
#1830000
0N
#1835000
0(
b00000 )
0K
1N
#1840000
0N
#1845000
1N
#1850000
0N
#1855000
1(
b01011 )
1K
1N
#1860000
0N
#1865000
1N
#1870000
0N
#1875000
0(
b00000 )
0K
1N
#1880000
0N
#1885000
1N
#1890000
0N
#1895000
1(
b01100 )
1K
1N
#1900000
0N
#1905000
1N
#1910000
0N
#1915000
0(
b00000 )
0K
1N
#1920000
0N
#1925000
1N
#1930000
0N
#1935000
1(
b01101 )
1K
1N
#1940000
0N
#1945000
1N
#1950000
0N
#1955000
0(
b00000 )
0K
1N
#1960000
0N
#1965000
1N
#1970000
0N
#1975000
1(
b01110 )
1K
1N
#1980000
0N
#1985000
1N
#1990000
0N
#1995000
0(
b00000 )
0K
1N
#2000000
0N
#2005000
1N
#2010000
0N
#2015000
1(
b01111 )
1K
1N
#2020000
0N
#2025000
1N
#2030000
0N
#2035000
0(
b00000 )
0K
1N
#2040000
0N
#2045000
1N
#2050000
0N
#2055000
1(
b10000 )
1K
1N
#2060000
0N
#2065000
1N
#2070000
0N
#2075000
0(
b00000 )
0K
1N
#2080000
0N
#2085000
1N
#2090000
0N
#2095000
1(
b10001 )
1K
1N
#2100000
0N
#2105000
1N
#2110000
0N
#2115000
0(
b00000 )
0K
1N
#2120000
0N
#2125000
1N
#2130000
0N
#2135000
1(
b10010 )
1K
1N
#2140000
0N
#2145000
1N
#2150000
0N
#2155000
0(
b00000 )
0K
1N
#2160000
0N
#2165000
1N
#2170000
0N
#2175000
1(
b10011 )
1K
1N
#2180000
0N
#2185000
1N
#2190000
0N
#2195000
0(
b00000 )
0K
1N
#2200000
0N
#2205000
1N
#2210000
0N
#2215000
1(
b10100 )
1K
1N
#2220000
0N
#2225000
1N
#2230000
0N
#2235000
0(
b00000 )
0K
1N
#2240000
0N
#2245000
1N
#2250000
0N
#2255000
1(
b10101 )
1K
1N
#2260000
0N
#2265000
1N
#2270000
0N
#2275000
0(
b00000 )
0K
1N
#2280000
0N
#2285000
1N
#2290000
0N
#2295000
1(
b10110 )
1K
1N
#2300000
0N
#2305000
1N
#2310000
0N
#2315000
0(
b00000 )
0K
1N
#2320000
0N
#2325000
1N
#2330000
0N
#2335000
1(
b10111 )
1K
1N
#2340000
0N
#2345000
1N
#2350000
0N
#2355000
0(
b00000 )
0K
1N
#2360000
0N
#2365000
1N
#2370000
0N
#2375000
1(
b11000 )
1K
1N
#2380000
0N
#2385000
1N
#2390000
0N
#2395000
0(
b00000 )
0K
1N
#2400000
0N
#2405000
1N
#2410000
0N
#2415000
1(
b11001 )
1K
1N
#2420000
0N
#2425000
1N
#2430000
0N
#2435000
0(
b00000 )
0K
1N
#2440000
0N
#2445000
1N
#2450000
0N
#2455000
1(
b11010 )
1K
1N
#2460000
0N
#2465000
1N
#2470000
0N
#2475000
0(
b00000 )
0K
1N
#2480000
0N
#2485000
1N
#2490000
0N
#2495000
1(
b11011 )
1K
1N
#2500000
0N
#2505000
1N
#2510000
0N
#2515000
0(
b00000 )
0K
1N
#2520000
0N
#2525000
1N
#2530000
0N
#2535000
1(
b11100 )
1K
1N
#2540000
0N
#2545000
1N
#2550000
0N
#2555000
0(
b00000 )
0K
1N
#2560000
0N
#2565000
1N
#2570000
0N
#2575000
1(
b11101 )
1K
1N
#2580000
0N
#2585000
1N
#2590000
0N
#2595000
0(
b00000 )
0K
1N
#2600000
0N
#2605000
1N
#2610000
0N
#2615000
1(
b11110 )
1K
1N
#2620000
0N
#2625000
1N
#2630000
0N
#2635000
0(
b00000 )
0K
1N
#2640000
0N
#2645000
1N
#2650000
0N
#2655000
1(
b11111 )
1K
1N
#2660000
0N
#2665000
1N
#2670000
0N
#2675000
0(
b00000 )
0K
1N
#2680000
0N
#2685000
1N
b00000000000000000000000000000011 P
#2690000
0N
#2695000
0"
b00000000000000000000000000000000 ,
b00000000000000000000000000100000 L
1N
#2700000
0N
#2705000
1N
#2710000
0N
#2715000
1"
b00000000000000000000000000000100 L
1N
#2720000
0N
#2725000
1N
#2730000
0N
#2735000
b0010 $
b00000000000000000000000000000001 /
1N
#2740000
0N
#2745000
b00000000000000000000000000000010 /
1N
#2750000
0N
#2755000
b00000000000000000000000000000011 /
1N
#2760000
0N
#2765000
b00000000000000000000000000000100 /
1N
#2770000
0N
#2775000
b00000000000000000000000000000101 /
1N
#2780000
0N
#2785000
b0000 $
1N
#2790000
0N
#2795000
1N
#2800000
0N
#2805000
1(
b00100 )
1K
1N
#2810000
0N
#2815000
1N
#2820000
0N
#2825000
0(
b00000 )
0K
1N
#2830000
0N
#2835000
1N
#2840000
0N
#2845000
1(
b00101 )
b00000000000000000000000000000101 J
1K
1N
#2850000
0N
#2855000
1N
b00000000000000000000000000000101 Q
#2860000
0N
#2865000
0(
b00000 )
0K
1N
#2870000
0N
#2875000
1N
#2880000
0N
#2885000
1(
b00001 )
b00000000000000000000000000000000 J
1K
1N
#2890000
0N
#2895000
1N
b00000000000000000000000000000000 Q
#2900000
0N
#2905000
0(
b00000 )
0K
1N
#2910000
0N
#2915000
1N
b00000000000000000000000000000100 P
#2920000
0N
#2925000
0"
b00000000000000000000000000000000 /
b00000000000000000000000000100000 L
1N
#2930000
0N
#2935000
1N
#2940000
0N
#2945000
1"
b00000000000000000000000000000100 L
1N
#2950000
0N
#2955000
1N
#2960000
0N
#2965000
b0000100000000000 %
b00000000000000000000000000000001 =
1N
#2970000
0N
#2975000
b00000000000000000000000000000010 =
1N
#2980000
0N
#2985000
b00000000000000000000000000000011 =
1N
#2990000
0N
#2995000
b00000000000000000000000000000100 =
1N
#3000000
0N
#3005000
b0000000000000000 %
1N
#3010000
0N
#3015000
1N
#3020000
0N
#3025000
1(
b10011 )
b00000000000000000000000000000100 J
1K
1N
#3030000
0N
#3035000
1N
b00000000000000000000000000000100 Q
#3040000
0N
#3045000
0(
b00000 )
0K
1N
#3050000
0N
#3055000
1N
#3060000
0N
#3065000
1(
b00000000000000000000000000000000 J
1K
1N
#3070000
0N
#3075000
1N
b00000000000000000000000000000000 Q
#3080000
0N
#3085000
0(
0K
1N
#3090000
0N
#3095000
1N
#3100000
0N
#3105000
1(
b00001 )
1K
1N
#3110000
0N
#3115000
1N
#3120000
0N
#3125000
0(
b00000 )
0K
1N
#3130000
0N
#3135000
1N
#3140000
0N
#3145000
1(
b00010 )
1K
1N
#3150000
0N
#3155000
1N
#3160000
0N
#3165000
0(
b00000 )
0K
1N
#3170000
0N
#3175000
1N
#3180000
0N
#3185000
1(
b00011 )
1K
1N
#3190000
0N
#3195000
1N
#3200000
0N
#3205000
0(
b00000 )
0K
1N
#3210000
0N
#3215000
1N
#3220000
0N
#3225000
1(
b00100 )
1K
1N
#3230000
0N
#3235000
1N
#3240000
0N
#3245000
0(
b00000 )
0K
1N
#3250000
0N
#3255000
1N
#3260000
0N
#3265000
1(
b00101 )
1K
1N
#3270000
0N
#3275000
1N
#3280000
0N
#3285000
0(
b00000 )
0K
1N
#3290000
0N
#3295000
1N
#3300000
0N
#3305000
1(
b00110 )
1K
1N
#3310000
0N
#3315000
1N
#3320000
0N
#3325000
0(
b00000 )
0K
1N
#3330000
0N
#3335000
1N
#3340000
0N
#3345000
1(
b00111 )
1K
1N
#3350000
0N
#3355000
1N
#3360000
0N
#3365000
0(
b00000 )
0K
1N
#3370000
0N
#3375000
1N
#3380000
0N
#3385000
1(
b01000 )
1K
1N
#3390000
0N
#3395000
1N
#3400000
0N
#3405000
0(
b00000 )
0K
1N
#3410000
0N
#3415000
1N
#3420000
0N
#3425000
1(
b01001 )
1K
1N
#3430000
0N
#3435000
1N
#3440000
0N
#3445000
0(
b00000 )
0K
1N
#3450000
0N
#3455000
1N
#3460000
0N
#3465000
1(
b01010 )
1K
1N
#3470000
0N
#3475000
1N
#3480000
0N
#3485000
0(
b00000 )
0K
1N
#3490000
0N
#3495000
1N
#3500000
0N
#3505000
1(
b01011 )
1K
1N
#3510000
0N
#3515000
1N
#3520000
0N
#3525000
0(
b00000 )
0K
1N
#3530000
0N
#3535000
1N
#3540000
0N
#3545000
1(
b01100 )
1K
1N
#3550000
0N
#3555000
1N
#3560000
0N
#3565000
0(
b00000 )
0K
1N
#3570000
0N
#3575000
1N
#3580000
0N
#3585000
1(
b01101 )
1K
1N
#3590000
0N
#3595000
1N
#3600000
0N
#3605000
0(
b00000 )
0K
1N
#3610000
0N
#3615000
1N
#3620000
0N
#3625000
1(
b01110 )
1K
1N
#3630000
0N
#3635000
1N
#3640000
0N
#3645000
0(
b00000 )
0K
1N
#3650000
0N
#3655000
1N
#3660000
0N
#3665000
1(
b01111 )
1K
1N
#3670000
0N
#3675000
1N
#3680000
0N
#3685000
0(
b00000 )
0K
1N
#3690000
0N
#3695000
1N
#3700000
0N
#3705000
1(
b10000 )
1K
1N
#3710000
0N
#3715000
1N
#3720000
0N
#3725000
0(
b00000 )
0K
1N
#3730000
0N
#3735000
1N
#3740000
0N
#3745000
1(
b10001 )
1K
1N
#3750000
0N
#3755000
1N
#3760000
0N
#3765000
0(
b00000 )
0K
1N
#3770000
0N
#3775000
1N
#3780000
0N
#3785000
1(
b10010 )
1K
1N
#3790000
0N
#3795000
1N
#3800000
0N
#3805000
0(
b00000 )
0K
1N
#3810000
0N
#3815000
1N
#3820000
0N
#3825000
1(
b10100 )
1K
1N
#3830000
0N
#3835000
1N
#3840000
0N
#3845000
0(
b00000 )
0K
1N
#3850000
0N
#3855000
1N
#3860000
0N
#3865000
1(
b10101 )
1K
1N
#3870000
0N
#3875000
1N
#3880000
0N
#3885000
0(
b00000 )
0K
1N
#3890000
0N
#3895000
1N
#3900000
0N
#3905000
1(
b10110 )
1K
1N
#3910000
0N
#3915000
1N
#3920000
0N
#3925000
0(
b00000 )
0K
1N
#3930000
0N
#3935000
1N
#3940000
0N
#3945000
1(
b10111 )
1K
1N
#3950000
0N
#3955000
1N
#3960000
0N
#3965000
0(
b00000 )
0K
1N
#3970000
0N
#3975000
1N
#3980000
0N
#3985000
1(
b11000 )
1K
1N
#3990000
0N
#3995000
1N
#4000000
0N
#4005000
0(
b00000 )
0K
1N
#4010000
0N
#4015000
1N
#4020000
0N
#4025000
1(
b11001 )
1K
1N
#4030000
0N
#4035000
1N
#4040000
0N
#4045000
0(
b00000 )
0K
1N
#4050000
0N
#4055000
1N
#4060000
0N
#4065000
1(
b11010 )
1K
1N
#4070000
0N
#4075000
1N
#4080000
0N
#4085000
0(
b00000 )
0K
1N
#4090000
0N
#4095000
1N
#4100000
0N
#4105000
1(
b11011 )
1K
1N
#4110000
0N
#4115000
1N
#4120000
0N
#4125000
0(
b00000 )
0K
1N
#4130000
0N
#4135000
1N
#4140000
0N
#4145000
1(
b11100 )
1K
1N
#4150000
0N
#4155000
1N
#4160000
0N
#4165000
0(
b00000 )
0K
1N
#4170000
0N
#4175000
1N
#4180000
0N
#4185000
1(
b11101 )
1K
1N
#4190000
0N
#4195000
1N
#4200000
0N
#4205000
0(
b00000 )
0K
1N
#4210000
0N
#4215000
1N
#4220000
0N
#4225000
1(
b11110 )
1K
1N
#4230000
0N
#4235000
1N
#4240000
0N
#4245000
0(
b00000 )
0K
1N
#4250000
0N
#4255000
1N
#4260000
0N
#4265000
1(
b11111 )
1K
1N
#4270000
0N
#4275000
1N
#4280000
0N
#4285000
0(
b00000 )
0K
1N
#4290000
0N
#4295000
1N
#4300000
0N
#4305000
b0000000000000001 %
b00000000000000000000000000000001 2
1N
#4310000
0N
#4315000
b00000000000000000000000000000010 2
1N
#4320000
0N
#4325000
b0000000000000000 %
1N
#4330000
0N
#4335000
1N
#4340000
0N
#4345000
1(
b01000 )
b00000000000000000000000000000010 J
1K
1N
#4350000
0N
#4355000
1N
b00000000000000000000000000000010 Q
#4360000
0N
#4365000
0(
b00000 )
0K
1N
#4370000
0N
#4375000
1N
#4380000
0N
#4385000
1(
b10011 )
b00000000000000000000000000000100 J
1K
1N
#4390000
0N
#4395000
1N
b00000000000000000000000000000100 Q
#4400000
0N
#4405000
0(
b00000 )
0K
1N
#4410000
0N
#4415000
1N
#4420000
0N
#4425000
1(
b00000000000000000000000000000000 J
1K
1N
#4430000
0N
#4435000
1N
b00000000000000000000000000000000 Q
#4440000
0N
#4445000
0(
0K
1N
#4450000
0N
#4455000
1N
#4460000
0N
#4465000
1(
b00001 )
1K
1N
#4470000
0N
#4475000
1N
#4480000
0N
#4485000
0(
b00000 )
0K
1N
#4490000
0N
#4495000
1N
#4500000
0N
#4505000
1(
b00010 )
1K
1N
#4510000
0N
#4515000
1N
#4520000
0N
#4525000
0(
b00000 )
0K
1N
#4530000
0N
#4535000
1N
#4540000
0N
#4545000
1(
b00011 )
1K
1N
#4550000
0N
#4555000
1N
#4560000
0N
#4565000
0(
b00000 )
0K
1N
#4570000
0N
#4575000
1N
#4580000
0N
#4585000
1(
b00100 )
1K
1N
#4590000
0N
#4595000
1N
#4600000
0N
#4605000
0(
b00000 )
0K
1N
#4610000
0N
#4615000
1N
#4620000
0N
#4625000
1(
b00101 )
1K
1N
#4630000
0N
#4635000
1N
#4640000
0N
#4645000
0(
b00000 )
0K
1N
#4650000
0N
#4655000
1N
#4660000
0N
#4665000
1(
b00110 )
1K
1N
#4670000
0N
#4675000
1N
#4680000
0N
#4685000
0(
b00000 )
0K
1N
#4690000
0N
#4695000
1N
#4700000
0N
#4705000
1(
b00111 )
1K
1N
#4710000
0N
#4715000
1N
#4720000
0N
#4725000
0(
b00000 )
0K
1N
#4730000
0N
#4735000
1N
#4740000
0N
#4745000
1(
b01001 )
1K
1N
#4750000
0N
#4755000
1N
#4760000
0N
#4765000
0(
b00000 )
0K
1N
#4770000
0N
#4775000
1N
#4780000
0N
#4785000
1(
b01010 )
1K
1N
#4790000
0N
#4795000
1N
#4800000
0N
#4805000
0(
b00000 )
0K
1N
#4810000
0N
#4815000
1N
#4820000
0N
#4825000
1(
b01011 )
1K
1N
#4830000
0N
#4835000
1N
#4840000
0N
#4845000
0(
b00000 )
0K
1N
#4850000
0N
#4855000
1N
#4860000
0N
#4865000
1(
b01100 )
1K
1N
#4870000
0N
#4875000
1N
#4880000
0N
#4885000
0(
b00000 )
0K
1N
#4890000
0N
#4895000
1N
#4900000
0N
#4905000
1(
b01101 )
1K
1N
#4910000
0N
#4915000
1N
#4920000
0N
#4925000
0(
b00000 )
0K
1N
#4930000
0N
#4935000
1N
#4940000
0N
#4945000
1(
b01110 )
1K
1N
#4950000
0N
#4955000
1N
#4960000
0N
#4965000
0(
b00000 )
0K
1N
#4970000
0N
#4975000
1N
#4980000
0N
#4985000
1(
b01111 )
1K
1N
#4990000
0N
#4995000
1N
#5000000
0N
#5005000
0(
b00000 )
0K
1N
#5010000
0N
#5015000
1N
#5020000
0N
#5025000
1(
b10000 )
1K
1N
#5030000
0N
#5035000
1N
