banked_sram_ctrl/sim/build/NUM_BANKS_4_BANK_DEPTH_256_DATA_WIDTH_128_ADDR_WIDTH_10_NUM_REQ_PORTS_4_QUEUE_DEPTH_4_ID_WIDTH_4/unit/waves/per_bank_arb.vcd
$version Generated by VerilatedVcd $end
$timescale 1ps $end
 $scope module sram_ctrl_pkg $end
  $var wire 32 2 NUM_BANKS [31:0] $end
  $var wire 32 4 BANK_DEPTH [31:0] $end
  $var wire 32 5 DATA_WIDTH [31:0] $end
  $var wire 32 6 ADDR_WIDTH [31:0] $end
  $var wire 32 2 NUM_REQ_PORTS [31:0] $end
  $var wire 32 2 QUEUE_DEPTH [31:0] $end
  $var wire 32 2 ID_WIDTH [31:0] $end
  $var wire 32 3 BANK_SEL_BITS [31:0] $end
  $var wire 32 7 BANK_ADDR_BITS [31:0] $end
  $var wire 32 3 PORT_ID_BITS [31:0] $end
  $var wire 32 8 TOTAL_ID_BITS [31:0] $end
  $var wire 32 2 STROBE_WIDTH [31:0] $end
 $upscope $end
 $scope module tb_per_bank_arb $end
  $var wire 32 2 NUM_REQ_PORTS [31:0] $end
  $var wire 32 3 PORT_WIDTH [31:0] $end
  $var wire 1 " clk $end
  $var wire 1 # rst_n $end
  $var wire 4 $ req_valid [3:0] $end
  $var wire 1 % grant_valid $end
  $var wire 2 & grant_port [1:0] $end
  $var wire 1 ' grant_ready $end
  $var wire 4 ( conflict_mask [3:0] $end
  $var wire 32 ) error_count [31:0] $end
  $var wire 32 * test_id [31:0] $end
  $scope module dut $end
   $var wire 32 2 NUM_REQ_PORTS [31:0] $end
   $var wire 1 " clk $end
   $var wire 1 # rst_n $end
   $var wire 4 $ req_valid [3:0] $end
   $var wire 1 % grant_valid $end
   $var wire 2 & grant_port [1:0] $end
   $var wire 1 ' grant_ready $end
   $var wire 4 ( conflict_mask [3:0] $end
   $var wire 32 3 port_width [31:0] $end
   $var wire 2 + ptr [1:0] $end
   $var wire 1 , contention $end
   $var wire 4 - tmp_r [3:0] $end
   $var wire 4 . rotate_r [3:0] $end
   $var wire 4 / priority_out [3:0] $end
   $var wire 4 0 grant [3:0] $end
   $var wire 4 1 tmp_l [3:0] $end
  $upscope $end
 $upscope $end
 $scope module verif_pkg $end
  $var wire 32 2 NUM_BANKS [31:0] $end
  $var wire 32 4 BANK_DEPTH [31:0] $end
  $var wire 32 5 DATA_WIDTH [31:0] $end
  $var wire 32 6 ADDR_WIDTH [31:0] $end
  $var wire 32 2 NUM_REQ_PORTS [31:0] $end
  $var wire 32 2 QUEUE_DEPTH [31:0] $end
  $var wire 32 2 ID_WIDTH [31:0] $end
  $var wire 32 2 STROBE_WIDTH [31:0] $end
  $var wire 32 3 BANK_SEL_BITS [31:0] $end
  $var wire 32 7 BANK_ADDR_BITS [31:0] $end
  $var wire 32 9 MAX_ADDR [31:0] $end
  $var wire 32 : CSR_ADDR_W [31:0] $end
  $var wire 32 ; OFF_REQ [31:0] $end
  $var wire 32 2 OFF_RSP [31:0] $end
  $var wire 32 7 OFF_CONF [31:0] $end
  $var wire 32 < OFF_QF [31:0] $end
  $var wire 32 = OFF_IDLE [31:0] $end
 $upscope $end
$enddefinitions $end


#0
0"
0#
b0000 $
0%
b00 &
0'
b0000 (
b00000000000000000000000000000000 )
b00000000000000000000000000000000 *
b00 +
0,
b0000 -
b0000 .
b0000 /
b0000 0
b0000 1
b00000000000000000000000000000100 2
b00000000000000000000000000000010 3
b00000000000000000000000100000000 4
b00000000000000000000000000100000 5
b00000000000000000000000000001010 6
b00000000000000000000000000001000 7
b00000000000000000000000000000110 8
b00000000000000000000001111111111 9
b00000000000000000000000000000101 :
b00000000000000000000000000000000 ;
b00000000000000000000000000011000 <
b00000000000000000000000000011100 =
#5000
1"
#10000
0"
#15000
1"
#20000
0"
#25000
1"
1#
#30000
0"
#35000
1"
b00000000000000000000000000000001 *
#40000
0"
#45000
1"
b0001 $
1%
b0001 -
b0001 .
b0001 /
b0001 0
b0001 1
#50000
0"
#55000
1"
b0100 $
b10 &
b00000000000000000000000000000010 *
b0100 -
b0100 .
b0100 /
b0100 0
b0100 1
#60000
0"
#65000
1"
1'
#70000
0"
#75000
1"
b0011 $
b00 &
0'
b0010 (
b00000000000000000000000000000011 *
1,
b0011 -
b0011 .
b0001 /
b0001 0
b0001 1
#80000
0"
#85000
1"
b01 &
1'
b0001 (
b01 +
b0001 -
b1001 .
b0010 0
b0010 1
#90000
0"
#95000
1"
0'
#100000
0"
#105000
1"
b00 &
1'
b0010 (
b10 +
b0000 -
b1100 .
b0100 /
b0001 0
b0000 1
#110000
0"
#115000
1"
b1100 $
b10 &
0'
b1000 (
b00000000000000000000000000000100 *
b0011 -
b0011 .
b0001 /
b0100 0
b0100 1
#120000
0"
#125000
1"
b11 &
1'
b0100 (
b11 +
b0001 -
b1001 .
b1000 0
b1000 1
#130000
0"
#135000
1"
b1001 $
0'
b0001 (
b0011 .
#140000
0"
#145000
1"
b00 &
1'
b1000 (
b00 +
b1001 -
b1001 .
b0001 0
b0001 1
#150000
0"
#155000
1"
0'
#160000
0"
#165000
1"
b0001 $
b0000 (
0,
b0001 -
b0001 .
#170000
0"
#175000
1"
b1111 $
b1110 (
b00000000000000000000000000000101 *
1,
b1111 -
b1111 .
#180000
0"
#185000
1"
b01 &
1'
b1101 (
b01 +
b0111 -
b0010 0
b0010 1
#190000
0"
#195000
1"
0'
#200000
0"
#205000
1"
b10 &
1'
b1011 (
b10 +
b0011 -
b0100 0
b0100 1
#210000
0"
#215000
1"
0'
#220000
0"
#225000
1"
b11 &
1'
b0111 (
b11 +
b0001 -
b1000 0
b1000 1
#230000
0"
#235000
1"
0'
#240000
0"
#245000
1"
b00 &
1'
b1110 (
b00 +
b1111 -
b0001 0
b0001 1
#250000
0"
#255000
1"
0'
#260000
0"
#265000
1"
b01 &
1'
b1101 (
b01 +
b0111 -
b0010 0
b0010 1
#270000
0"
#275000
1"
0'
#280000
0"
#285000
1"
b10 &
1'
b1011 (
b10 +
b0011 -
b0100 0
b0100 1
#290000
0"
#295000
1"
0'
#300000
0"
#305000
1"
b11 &
1'
b0111 (
b11 +
b0001 -
b1000 0
b1000 1
#310000
0"
#315000
1"
0'
#320000
0"
#325000
1"
b00 &
1'
b1110 (
b00 +
b1111 -
b0001 0
b0001 1
#330000
0"
#335000
1"
b0001 $
0'
b0000 (
0,
b0001 -
b0001 .
#340000
0"
#345000
1"
b0011 $
b0010 (
b00000000000000000000000000000110 *
1,
b0011 -
b0011 .
#350000
0"
#355000
1"
#360000
0"
#365000
1"
#370000
0"
#375000
1"
#380000
0"
#385000
1"
#390000
0"
#395000
1"
#400000
0"
#405000
1"
b01 &
1'
b0001 (
b01 +
b0001 -
b1001 .
b0010 0
b0010 1
#410000
0"
#415000
1"
0'
#420000
0"
#425000
1"
b0111 $
b0101 (
b00000000000000000000000000000111 *
b0011 -
b1011 .
#430000
0"
#435000
1"
b10 &
1'
b0011 (
b10 +
b0001 -
b1101 .
b0100 0
b0100 1
#440000
0"
#445000
1"
b0001 $
b00 &
0'
b0000 (
0,
b0000 -
b0100 .
b0100 /
b0001 0
b0000 1
#450000
0"
#455000
1"
1'
#460000
0"
#465000
1"
b0000 $
0%
0'
b0000 .
b0000 /
b0000 0
#470000
0"
#475000
1"
b00000000000000000000000000001000 *
#480000
0"
#485000
1"
#490000
0"
#495000
1"
#500000
0"
#505000
1"
#510000
0"
#515000
1"
#520000
0"
#525000
1"
b1011 $
1%
b11 &
b0011 (
1,
b0010 -
b1110 .
b0010 /
b1000 0
b1000 1
