banked_sram_ctrl/sim/build/NUM_BANKS_4_BANK_DEPTH_256_DATA_WIDTH_128_ADDR_WIDTH_10_NUM_REQ_PORTS_4_QUEUE_DEPTH_4_ID_WIDTH_4/unit/waves/req_fifo.vcd
$version Generated by VerilatedVcd $end
$timescale 1ps $end
 $scope module sram_ctrl_pkg $end
  $var wire 32 S NUM_BANKS [31:0] $end
  $var wire 32 ] BANK_DEPTH [31:0] $end
  $var wire 32 ^ DATA_WIDTH [31:0] $end
  $var wire 32 _ ADDR_WIDTH [31:0] $end
  $var wire 32 S NUM_REQ_PORTS [31:0] $end
  $var wire 32 S QUEUE_DEPTH [31:0] $end
  $var wire 32 S ID_WIDTH [31:0] $end
  $var wire 32 \ BANK_SEL_BITS [31:0] $end
  $var wire 32 ` BANK_ADDR_BITS [31:0] $end
  $var wire 32 \ PORT_ID_BITS [31:0] $end
  $var wire 32 a TOTAL_ID_BITS [31:0] $end
  $var wire 32 S STROBE_WIDTH [31:0] $end
 $upscope $end
 $scope module tb_req_fifo $end
  $var wire 32 R DATA_WIDTH [31:0] $end
  $var wire 32 S QUEUE_DEPTH [31:0] $end
  $var wire 1 I clk $end
  $var wire 1 J rst_n $end
  $var wire 1 K push_valid $end
  $var wire 1 8 push_ready $end
  $var wire 64 L push_data [63:0] $end
  $var wire 1 9 head_valid $end
  $var wire 64 : head_data [63:0] $end
  $var wire 1 N pop $end
  $var wire 1 < full $end
  $var wire 1 = empty $end
  $var wire 64 " A [63:0] $end
  $var wire 64 $ B [63:0] $end
  $var wire 64 T C [63:0] $end
  $var wire 64 V D [63:0] $end
  $var wire 64 & D0 [63:0] $end
  $var wire 64 ( D1 [63:0] $end
  $var wire 64 * D2 [63:0] $end
  $var wire 64 , D3 [63:0] $end
  $var wire 64 . D4 [63:0] $end
  $var wire 64 0 D5 [63:0] $end
  $var wire 64 2 D6 [63:0] $end
  $var wire 64 4 D7 [63:0] $end
  $var wire 64 6 old_head [63:0] $end
  $var wire 64 X cap_data [63:0] $end
  $var wire 64 Z exp_data [63:0] $end
  $var wire 32 O error_count [31:0] $end
  $var wire 32 P test_id [31:0] $end
  $scope module dut $end
   $var wire 32 R DATA_WIDTH [31:0] $end
   $var wire 32 S QUEUE_DEPTH [31:0] $end
   $var wire 1 I clk $end
   $var wire 1 J rst_n $end
   $var wire 1 K push_valid $end
   $var wire 1 8 push_ready $end
   $var wire 64 L push_data [63:0] $end
   $var wire 1 9 head_valid $end
   $var wire 64 : head_data [63:0] $end
   $var wire 1 N pop $end
   $var wire 1 < full $end
   $var wire 1 = empty $end
   $var wire 32 \ ptr_width [31:0] $end
   $var wire 64 > fifo_mem[0] [63:0] $end
   $var wire 64 @ fifo_mem[1] [63:0] $end
   $var wire 64 B fifo_mem[2] [63:0] $end
   $var wire 64 D fifo_mem[3] [63:0] $end
   $var wire 2 F wr_ptr [1:0] $end
   $var wire 2 G rd_ptr [1:0] $end
   $var wire 3 H occupancy [2:0] $end
   $var wire 3 Q nxt_occupancy [2:0] $end
  $upscope $end
 $upscope $end
 $scope module verif_pkg $end
  $var wire 32 S NUM_BANKS [31:0] $end
  $var wire 32 ] BANK_DEPTH [31:0] $end
  $var wire 32 ^ DATA_WIDTH [31:0] $end
  $var wire 32 _ ADDR_WIDTH [31:0] $end
  $var wire 32 S NUM_REQ_PORTS [31:0] $end
  $var wire 32 S QUEUE_DEPTH [31:0] $end
  $var wire 32 S ID_WIDTH [31:0] $end
  $var wire 32 S STROBE_WIDTH [31:0] $end
  $var wire 32 \ BANK_SEL_BITS [31:0] $end
  $var wire 32 ` BANK_ADDR_BITS [31:0] $end
  $var wire 32 b MAX_ADDR [31:0] $end
  $var wire 32 c CSR_ADDR_W [31:0] $end
  $var wire 32 d OFF_REQ [31:0] $end
  $var wire 32 S OFF_RSP [31:0] $end
  $var wire 32 ` OFF_CONF [31:0] $end
  $var wire 32 e OFF_QF [31:0] $end
  $var wire 32 f OFF_IDLE [31:0] $end
 $upscope $end
$enddefinitions $end


#0
b0000000000000000000000000000000000000000000000000000000000000000 "
b0000000000000000000000000000000000000000000000000000000000000000 $
b0000000000000000000000000000000000000000000000000000000000000000 &
b0000000000000000000000000000000000000000000000000000000000000000 (
b0000000000000000000000000000000000000000000000000000000000000000 *
b0000000000000000000000000000000000000000000000000000000000000000 ,
b0000000000000000000000000000000000000000000000000000000000000000 .
b0000000000000000000000000000000000000000000000000000000000000000 0
b0000000000000000000000000000000000000000000000000000000000000000 2
b0000000000000000000000000000000000000000000000000000000000000000 4
b0000000000000000000000000000000000000000000000000000000000000000 6
08
09
b0000000000000000000000000000000000000000000000000000000000000000 :
0<
1=
b0000000000000000000000000000000000000000000000000000000000000000 >
b0000000000000000000000000000000000000000000000000000000000000000 @
b0000000000000000000000000000000000000000000000000000000000000000 B
b0000000000000000000000000000000000000000000000000000000000000000 D
b00 F
b00 G
b000 H
0I
0J
0K
b0000000000000000000000000000000000000000000000000000000000000000 L
0N
b00000000000000000000000000000000 O
b00000000000000000000000000000000 P
b000 Q
b00000000000000000000000001000000 R
b00000000000000000000000000000100 S
b0000000000000000000000000000000000000000000000000000000000000000 T
b0000000000000000000000000000000000000000000000000000000000000000 V
b0000000000000000000000000000000000000000000000000000000000000000 X
b0000000000000000000000000000000000000000000000000000000000000000 Z
b00000000000000000000000000000010 \
b00000000000000000000000100000000 ]
b00000000000000000000000000100000 ^
b00000000000000000000000000001010 _
b00000000000000000000000000001000 `
b00000000000000000000000000000110 a
b00000000000000000000001111111111 b
b00000000000000000000000000000101 c
b00000000000000000000000000000000 d
b00000000000000000000000000011000 e
b00000000000000000000000000011100 f
#5000
18
1I
1J
#10000
0I
#15000
b0000000000000000000000000000000000000000000000000000000010101011 "
19
b0000000000000000000000000000000000000000000000000000000010101011 :
0=
b0000000000000000000000000000000000000000000000000000000010101011 >
b01 F
b001 H
1I
1K
b0000000000000000000000000000000000000000000000000000000010101011 L
b00000000000000000000000000000010 P
b010 Q
#20000
0I
#25000
1I
0K
b0000000000000000000000000000000000000000000000000000000000000000 L
b001 Q
#30000
0I
#35000
09
1=
b00 F
b000 H
1I
0J
b00000000000000000000000000000011 P
b000 Q
#40000
0I
#45000
1I
1J
#50000
0I
#55000
b0000000000000000000000000000000000000000000000000000000000000001 (
b0000000000000000000000000000000000000000000000000000000000000010 *
b0000000000000000000000000000000000000000000000000000000000000011 ,
19
b0000000000000000000000000000000000000000000000000000000000000000 :
0=
b0000000000000000000000000000000000000000000000000000000000000000 >
b01 F
b001 H
1I
1K
b010 Q
#60000
0I
#65000
b0000000000000000000000000000000000000000000000000000000000000001 @
b10 F
b010 H
1I
b0000000000000000000000000000000000000000000000000000000000000001 L
b011 Q
#70000
0I
#75000
b0000000000000000000000000000000000000000000000000000000000000010 B
b11 F
b011 H
1I
b0000000000000000000000000000000000000000000000000000000000000010 L
b100 Q
#80000
0I
#85000
08
1<
b0000000000000000000000000000000000000000000000000000000000000011 D
b00 F
b100 H
1I
b0000000000000000000000000000000000000000000000000000000000000011 L
#90000
0I
#95000
1I
0K
b0000000000000000000000000000000000000000000000000000000000000000 L
#100000
0I
#105000
1I
1K
b0000000000000000000000000000000000000000000000001101111010101101 L
b00000000000000000000000000000100 P
#110000
0I
#115000
1I
0K
b0000000000000000000000000000000000000000000000000000000000000000 L
#120000
0I
#125000
18
b0000000000000000000000000000000000000000000000000000000000000001 :
0<
b01 G
b011 H
1I
1N
b00000000000000000000000000000101 P
b010 Q
#130000
0I
#135000
1I
0N
b011 Q
#140000
0I
#145000
09
b0000000000000000000000000000000000000000000000000000000000000000 :
1=
b00 G
b000 H
1I
0J
b00000000000000000000000000000110 P
b000 Q
#150000
0I
#155000
1I
1J
#160000
0I
#165000
b0000000000000000000000000000000000000000000000000000000000010001 "
b0000000000000000000000000000000000000000000000000000000000100010 $
19
b0000000000000000000000000000000000000000000000000000000000010001 :
0=
b0000000000000000000000000000000000000000000000000000000000010001 >
b01 F
b001 H
1I
1K
b0000000000000000000000000000000000000000000000000000000000010001 L
b010 Q
#170000
0I
#175000
1I
0K
b0000000000000000000000000000000000000000000000000000000000000000 L
b001 Q
#180000
0I
#185000
b0000000000000000000000000000000000000000000000000000000000100010 @
b10 F
b010 H
1I
1K
b0000000000000000000000000000000000000000000000000000000000100010 L
b011 Q
#190000
0I
#195000
1I
0K
b0000000000000000000000000000000000000000000000000000000000000000 L
b010 Q
#200000
0I
#205000
b0000000000000000000000000000000000000000000000000000000000100010 :
b01 G
b001 H
1I
1N
b000 Q
#210000
0I
#215000
1I
0N
b001 Q
#220000
0I
#225000
09
b0000000000000000000000000000000000000000000000000000000000010001 :
1=
b00 F
b00 G
b000 H
1I
0J
b00000000000000000000000000000111 P
b000 Q
#230000
0I
#235000
1I
1J
#240000
0I
#245000
19
b0000000000000000000000000000000000000000000000000000000001010101 :
0=
b0000000000000000000000000000000000000000000000000000000001010101 >
b01 F
b001 H
1I
1K
b0000000000000000000000000000000000000000000000000000000001010101 L
b010 Q
#250000
0I
#255000
1I
0K
b0000000000000000000000000000000000000000000000000000000000000000 L
b001 Q
#260000
0I
#265000
09
b0000000000000000000000000000000000000000000000000000000000100010 :
1=
b01 G
b000 H
1I
1N
b000 Q
#270000
0I
#275000
1I
0N
#280000
0I
#285000
b0000000000000000000000000000000000000000000000000000000001010101 :
b00 F
b00 G
1I
0J
b00000000000000000000000000001000 P
#290000
0I
#295000
1I
1J
#300000
0I
#305000
b0000000000000000000000000000000000000000000000000000000010101010 "
b0000000000000000000000000000000000000000000000000000000010111011 $
19
b0000000000000000000000000000000000000000000000000000000010101010 :
0=
b0000000000000000000000000000000000000000000000000000000010101010 >
b01 F
b001 H
1I
1K
b0000000000000000000000000000000000000000000000000000000010101010 L
b010 Q
#310000
0I
#315000
1I
0K
b0000000000000000000000000000000000000000000000000000000000000000 L
b001 Q
#320000
0I
#325000
b0000000000000000000000000000000000000000000000000000000010111011 :
b0000000000000000000000000000000000000000000000000000000010111011 @
b10 F
b01 G
1I
1K
b0000000000000000000000000000000000000000000000000000000010111011 L
1N
#330000
0I
#335000
1I
0K
0N
#340000
0I
#345000
09
b0000000000000000000000000000000000000000000000000000000010101010 :
1=
b00 F
b00 G
b000 H
1I
0J
b00000000000000000000000000001001 P
b000 Q
#350000
0I
#355000
1I
1J
#360000
0I
#365000
19
b0000000000000000000000000000000000000000000000000000000000000001 :
0=
b0000000000000000000000000000000000000000000000000000000000000001 >
b01 F
b001 H
1I
1K
b0000000000000000000000000000000000000000000000000000000000000001 L
b010 Q
#370000
0I
#375000
b0000000000000000000000000000000000000000000000000000000000000010 @
b10 F
b010 H
1I
b0000000000000000000000000000000000000000000000000000000000000010 L
b011 Q
#380000
0I
#385000
b0000000000000000000000000000000000000000000000000000000000000011 B
b11 F
b011 H
1I
b0000000000000000000000000000000000000000000000000000000000000011 L
b100 Q
#390000
0I
#395000
1I
0K
b0000000000000000000000000000000000000000000000000000000000000000 L
b011 Q
#400000
0I
#405000
b0000000000000000000000000000000000000000000000000000000000000010 :
b0000000000000000000000000000000000000000000000000000000011001100 D
b00 F
b01 G
1I
1K
b0000000000000000000000000000000000000000000000000000000011001100 L
1N
#410000
0I
#415000
1I
0K
0N
#420000
0I
#425000
09
b0000000000000000000000000000000000000000000000000000000000000001 :
1=
b00 G
b000 H
1I
0J
b00000000000000000000000000001010 P
b000 Q
#430000
0I
#435000
1I
1J
#440000
0I
#445000
1I
1N
#450000
0I
#455000
1I
0N
#460000
0I
#465000
1I
0J
b00000000000000000000000000001011 P
#470000
0I
#475000
1I
1J
#480000
0I
#485000
b0000000000000000000000000000000000000000000000000000000000010000 &
b0000000000000000000000000000000000000000000000000000000000100000 (
b0000000000000000000000000000000000000000000000000000000000110000 *
b0000000000000000000000000000000000000000000000000000000001000000 ,
b0000000000000000000000000000000000000000000000000000000001010000 .
b0000000000000000000000000000000000000000000000000000000001100000 0
b0000000000000000000000000000000000000000000000000000000001110000 2
b0000000000000000000000000000000000000000000000000000000010000000 4
19
b0000000000000000000000000000000000000000000000000000000000010000 :
0=
b0000000000000000000000000000000000000000000000000000000000010000 >
b01 F
b001 H
1I
1K
b0000000000000000000000000000000000000000000000000000000000010000 L
b010 Q
#490000
0I
#495000
b0000000000000000000000000000000000000000000000000000000000100000 @
b10 F
b010 H
1I
b0000000000000000000000000000000000000000000000000000000000100000 L
b011 Q
#500000
0I
#505000
b0000000000000000000000000000000000000000000000000000000000110000 B
b11 F
b011 H
1I
b0000000000000000000000000000000000000000000000000000000000110000 L
b100 Q
#510000
0I
#515000
08
1<
b0000000000000000000000000000000000000000000000000000000001000000 D
b00 F
b100 H
1I
b0000000000000000000000000000000000000000000000000000000001000000 L
#520000
0I
#525000
1I
0K
b0000000000000000000000000000000000000000000000000000000000000000 L
#530000
0I
#535000
18
b0000000000000000000000000000000000000000000000000000000000100000 :
0<
b01 G
b011 H
1I
1N
b010 Q
#540000
0I
#545000
1I
0N
b011 Q
#550000
0I
#555000
b0000000000000000000000000000000000000000000000000000000000110000 :
b10 G
b010 H
1I
1N
b001 Q
#560000
0I
#565000
1I
0N
b010 Q
#570000
0I
#575000
b0000000000000000000000000000000000000000000000000000000001000000 :
b11 G
b001 H
1I
1N
b000 Q
#580000
0I
#585000
1I
0N
b001 Q
#590000
0I
#595000
09
b0000000000000000000000000000000000000000000000000000000000010000 :
1=
b00 G
b000 H
1I
1N
b000 Q
#600000
0I
#605000
1I
0N
#610000
0I
#615000
19
b0000000000000000000000000000000000000000000000000000000001010000 :
0=
b0000000000000000000000000000000000000000000000000000000001010000 >
b01 F
b001 H
1I
1K
b0000000000000000000000000000000000000000000000000000000001010000 L
b010 Q
#620000
0I
#625000
b0000000000000000000000000000000000000000000000000000000001100000 @
b10 F
b010 H
1I
b0000000000000000000000000000000000000000000000000000000001100000 L
b011 Q
#630000
0I
#635000
b0000000000000000000000000000000000000000000000000000000001110000 B
b11 F
b011 H
1I
b0000000000000000000000000000000000000000000000000000000001110000 L
b100 Q
#640000
0I
#645000
08
1<
b0000000000000000000000000000000000000000000000000000000010000000 D
b00 F
b100 H
1I
b0000000000000000000000000000000000000000000000000000000010000000 L
#650000
0I
#655000
1I
0K
b0000000000000000000000000000000000000000000000000000000000000000 L
#660000
0I
#665000
18
b0000000000000000000000000000000000000000000000000000000001100000 :
0<
b01 G
b011 H
1I
1N
b010 Q
#670000
0I
#675000
1I
0N
b011 Q
#680000
0I
#685000
b0000000000000000000000000000000000000000000000000000000001110000 :
b10 G
b010 H
1I
1N
b001 Q
#690000
0I
#695000
1I
0N
b010 Q
#700000
0I
#705000
b0000000000000000000000000000000000000000000000000000000010000000 :
b11 G
b001 H
1I
1N
b000 Q
#710000
0I
#715000
1I
0N
b001 Q
#720000
0I
#725000
09
b0000000000000000000000000000000000000000000000000000000001010000 :
1=
b00 G
b000 H
1I
1N
b000 Q
#730000
0I
#735000
1I
0N
#740000
0I
#745000
1I
0J
b00000000000000000000000000001100 P
#750000
0I
#755000
1I
1J
#760000
0I
#765000
19
b0000000000000000000000000000000000000000000000000000000000000000 :
0=
b0000000000000000000000000000000000000000000000000000000000000000 >
b01 F
b001 H
1I
1K
b010 Q
#770000
0I
#775000
b0000000000000000000000000000000000000000000000000000000000000001 @
b10 F
b010 H
1I
b0000000000000000000000000000000000000000000000000000000000000001 L
b011 Q
#780000
0I
#785000
b0000000000000000000000000000000000000000000000000000000000000010 B
b11 F
b011 H
1I
b0000000000000000000000000000000000000000000000000000000000000010 L
b100 Q
#790000
0I
#795000
1I
0K
b0000000000000000000000000000000000000000000000000000000000000000 L
b011 Q
#800000
0I
#805000
08
1<
b0000000000000000000000000000000000000000000000000000000011111110 D
b00 F
b100 H
1I
1K
b0000000000000000000000000000000000000000000000000000000011111110 L
b100 Q
#810000
0I
#815000
1I
0K
b0000000000000000000000000000000000000000000000000000000000000000 L
#820000
0I
#825000
18
09
0<
1=
b000 H
1I
0J
b00000000000000000000000000001101 P
b000 Q
#830000
0I
#835000
1I
1J
#840000
0I
#845000
19
0=
b01 F
b001 H
1I
1K
b010 Q
#846000
0K
b001 Q
