banked_sram_ctrl/sim/build/NUM_BANKS_4_BANK_DEPTH_256_DATA_WIDTH_32_ADDR_WIDTH_10_NUM_REQ_PORTS_2_QUEUE_DEPTH_4_ID_WIDTH_4/unit/logs/banked_sram_ctrl.log

=== Parameter Boundary Checks ===
[INFO] NUM_BANKS=4  BANK_DEPTH=256  DATA_WIDTH=32
[INFO] ADDR_WIDTH=10  NUM_REQ_PORTS=4  QUEUE_DEPTH=4  ID_WIDTH=4
[INFO] BANK_SEL_BITS=2  BANK_ADDR_BITS=8  TOTAL_ID_BITS=6
[INFO] N_CSR=32  CSR_ADDR_W=5
[INFO] All parameter assertions passed
[INFO] Reset complete @ 56000

=== TC_INT_01: Basic Read Round-Trip ===
[PASS] TC01: W-ACK data=0    p=0 a=4  @106000
[PASS] TC01: W-ACK err=0     p=0 a=4  @106000
[PASS] TC01: W-ACK id match  p=0  @106000
[PASS] TC01: Read data p=0 a=4 exp=deadbeef got=deadbeef  @156000
[PASS] TC01: Read err=0  p=0 a=4  @156000
[PASS] TC01: Read id match p=0 txn=1 got=1  @156000

=== TC_INT_02: Write ACK Response ===
[PASS] TC02: W-ACK data=0    p=0 a=1  @206000
[PASS] TC02: W-ACK err=0     p=0 a=1  @206000
[PASS] TC02: W-ACK id match  p=0  @206000
[PASS] TC02: Write ACK received and validated inside do_write  @206000

=== TC_INT_03: Multi-Port Different Banks ===
[PASS] TC03: W-ACK data=0    p=0 a=c  @256000
[PASS] TC03: W-ACK err=0     p=0 a=c  @256000
[PASS] TC03: W-ACK id match  p=0  @256000
[PASS] TC03: W-ACK data=0    p=1 a=d  @306000
[PASS] TC03: W-ACK err=0     p=1 a=d  @306000
[PASS] TC03: W-ACK id match  p=1  @306000
[PASS] TC03: W-ACK data=0    p=2 a=e  @356000
[PASS] TC03: W-ACK err=0     p=2 a=e  @356000
[PASS] TC03: W-ACK id match  p=2  @356000
[PASS] TC03: W-ACK data=0    p=3 a=f  @406000
[PASS] TC03: W-ACK err=0     p=3 a=f  @406000
[PASS] TC03: W-ACK id match  p=3  @406000
[PASS] TC03: Read data p=0 a=c exp=10000000 got=10000000  @456000
[PASS] TC03: Read err=0  p=0 a=c  @456000
[PASS] TC03: Read id match p=0 txn=4 got=4  @456000
[PASS] TC03: Read data p=1 a=d exp=10000001 got=10000001  @506000
[PASS] TC03: Read err=0  p=1 a=d  @506000
[PASS] TC03: Read id match p=1 txn=5 got=5  @506000
[PASS] TC03: Read data p=2 a=e exp=10000002 got=10000002  @556000
[PASS] TC03: Read err=0  p=2 a=e  @556000
[PASS] TC03: Read id match p=2 txn=6 got=6  @556000
[PASS] TC03: Read data p=3 a=f exp=10000003 got=10000003  @606000
[PASS] TC03: Read err=0  p=3 a=f  @606000
[PASS] TC03: Read id match p=3 txn=7 got=7  @606000
[PASS] TC03: All ports served independently with no cross-bank corruption  @606000

=== TC_INT_04: Bank Conflict Round-Robin ===
[PASS] TC04: W-ACK data=0    p=0 a=28  @656000
[PASS] TC04: W-ACK err=0     p=0 a=28  @656000
[PASS] TC04: W-ACK id match  p=0  @656000
[PASS] TC04: W-ACK data=0    p=1 a=2c  @706000
[PASS] TC04: W-ACK err=0     p=1 a=2c  @706000
[PASS] TC04: W-ACK id match  p=1  @706000
[PASS] TC04: Read data p=0 a=28 exp=aaaaaaaa got=aaaaaaaa  @756000
[PASS] TC04: Read err=0  p=0 a=28  @756000
[PASS] TC04: Read id match p=0 txn=1 got=1  @756000
[PASS] TC04: Read data p=1 a=2c exp=bbbbbbbb got=bbbbbbbb  @806000
[PASS] TC04: Read err=0  p=1 a=2c  @806000
[PASS] TC04: Read id match p=1 txn=1 got=1  @806000
[PASS] TC04: Data integrity preserved under bank conflict  @806000

=== TC_INT_05: Backpressure Isolation ===
[PASS] TC05: Port 0 req_ready deasserted (rsp_fifo full → PP1 stall → PP0 stall → req_fifo full)  @1026000
[PASS] TC05: W-ACK data=0    p=1 a=17d  @1076000
[PASS] TC05: W-ACK err=0     p=1 a=17d  @1076000
[PASS] TC05: W-ACK id match  p=1  @1076000
[PASS] TC05: Read data p=1 a=17d exp=cccccccc got=cccccccc  @1126000
[PASS] TC05: Read err=0  p=1 a=17d  @1126000
[PASS] TC05: Read id match p=1 txn=1 got=1  @1126000
[PASS] TC05: Port 1 unaffected while port 0 is stalled  @1126000
[PASS] TC05: Port 0 req_ready recovers after backpressure release  @1286000

=== TC_INT_06: OOB Address Check ===
[PASS] TC06: ADDR_WIDTH=10 >= min=10  @1286000
[INFO] TC_INT_06: OOB inactive in this config — addr_oob permanently 0.
[INFO] Recompile with ADDR_WIDTH > 10 to activate OOB path.

=== TC_INT_07: Partial Write Byte-Enable ===
[PASS] TC07: W-ACK data=0    p=0 a=16  @1336000
[PASS] TC07: W-ACK err=0     p=0 a=16  @1336000
[PASS] TC07: W-ACK id match  p=0  @1336000
[PASS] TC07: W-ACK data=0    p=0 a=16  @1386000
[PASS] TC07: W-ACK err=0     p=0 a=16  @1386000
[PASS] TC07: W-ACK id match  p=0  @1386000
[PASS] TC07: Read data p=0 a=16 exp=aa3456dd got=aa3456dd  @1436000
[PASS] TC07: Read err=0  p=0 a=16  @1436000
[PASS] TC07: Read id match p=0 txn=2 got=2  @1436000
[PASS] TC07: W-ACK data=0    p=0 a=1a  @1486000
[PASS] TC07: W-ACK err=0     p=0 a=1a  @1486000
[PASS] TC07: W-ACK id match  p=0  @1486000
[PASS] TC07: W-ACK data=0    p=0 a=1a  @1536000
[PASS] TC07: W-ACK err=0     p=0 a=1a  @1536000
[PASS] TC07: W-ACK id match  p=0  @1536000
[PASS] TC07: Read data p=0 a=1a exp=ffffff42 got=ffffff42  @1586000
[PASS] TC07: Read err=0  p=0 a=1a  @1586000
[PASS] TC07: Read id match p=0 txn=5 got=5  @1586000

=== TC_INT_08: In-Order Responses ===
[PASS] TC08: W-ACK data=0    p=0 a=c8  @1636000
[PASS] TC08: W-ACK err=0     p=0 a=c8  @1636000
[PASS] TC08: W-ACK id match  p=0  @1636000
[PASS] TC08: W-ACK data=0    p=0 a=cd  @1686000
[PASS] TC08: W-ACK err=0     p=0 a=cd  @1686000
[PASS] TC08: W-ACK id match  p=0  @1686000
[PASS] TC08: W-ACK data=0    p=0 a=d2  @1736000
[PASS] TC08: W-ACK err=0     p=0 a=d2  @1736000
[PASS] TC08: W-ACK id match  p=0  @1736000
[PASS] TC08: W-ACK data=0    p=0 a=d7  @1786000
[PASS] TC08: W-ACK err=0     p=0 a=d7  @1786000
[PASS] TC08: W-ACK id match  p=0  @1786000
[PASS] TC08: In-order: expected ID=0 got=0  @1836000
[PASS] TC08: In-order: data correct for slot 0  @1836000
[PASS] TC08: In-order: err=0 slot 0  @1836000
[PASS] TC08: In-order: expected ID=1 got=1  @1846000
[PASS] TC08: In-order: data correct for slot 1  @1846000
[PASS] TC08: In-order: err=0 slot 1  @1846000
[PASS] TC08: In-order: expected ID=2 got=2  @1856000
[PASS] TC08: In-order: data correct for slot 2  @1856000
[PASS] TC08: In-order: err=0 slot 2  @1856000
[PASS] TC08: In-order: expected ID=3 got=3  @1866000
[PASS] TC08: In-order: data correct for slot 3  @1866000
[PASS] TC08: In-order: err=0 slot 3  @1866000

=== TC_INT_09: req_fifo Full Backpressure ===
[PASS] TC09: req_ready[0]=0 (fifo full) after 10 accepted  @2086000
[PASS] TC09: Accepted at least queue depth (4)  @2086000
[PASS] TC09: Accepted count (10) remained bounded  @2086000
[PASS] TC09: req_ready[0] recovers after drain  @2286000

=== TC_INT_10: Random Traffic Scoreboard ===
[PASS] TC10: W-ACK data=0    p=0 a=190  @2336000
[PASS] TC10: W-ACK err=0     p=0 a=190  @2336000
[PASS] TC10: W-ACK id match  p=0  @2336000
[PASS] TC10: W-ACK data=0    p=1 a=195  @2386000
[PASS] TC10: W-ACK err=0     p=1 a=195  @2386000
[PASS] TC10: W-ACK id match  p=1  @2386000
[PASS] TC10: W-ACK data=0    p=2 a=19a  @2436000
[PASS] TC10: W-ACK err=0     p=2 a=19a  @2436000
[PASS] TC10: W-ACK id match  p=2  @2436000
[PASS] TC10: W-ACK data=0    p=3 a=19f  @2486000
[PASS] TC10: W-ACK err=0     p=3 a=19f  @2486000
[PASS] TC10: W-ACK id match  p=3  @2486000
[PASS] TC10: W-ACK data=0    p=0 a=1a0  @2536000
[PASS] TC10: W-ACK err=0     p=0 a=1a0  @2536000
[PASS] TC10: W-ACK id match  p=0  @2536000
[PASS] TC10: W-ACK data=0    p=1 a=1a5  @2586000
[PASS] TC10: W-ACK err=0     p=1 a=1a5  @2586000
[PASS] TC10: W-ACK id match  p=1  @2586000
[PASS] TC10: W-ACK data=0    p=2 a=1aa  @2636000
[PASS] TC10: W-ACK err=0     p=2 a=1aa  @2636000
[PASS] TC10: W-ACK id match  p=2  @2636000
[PASS] TC10: W-ACK data=0    p=3 a=1af  @2686000
[PASS] TC10: W-ACK err=0     p=3 a=1af  @2686000
[PASS] TC10: W-ACK id match  p=3  @2686000
[PASS] TC10: W-ACK data=0    p=0 a=1b0  @2736000
[PASS] TC10: W-ACK err=0     p=0 a=1b0  @2736000
[PASS] TC10: W-ACK id match  p=0  @2736000
[PASS] TC10: W-ACK data=0    p=1 a=1b5  @2786000
[PASS] TC10: W-ACK err=0     p=1 a=1b5  @2786000
[PASS] TC10: W-ACK id match  p=1  @2786000
[PASS] TC10: W-ACK data=0    p=2 a=1ba  @2836000
[PASS] TC10: W-ACK err=0     p=2 a=1ba  @2836000
[PASS] TC10: W-ACK id match  p=2  @2836000
[PASS] TC10: W-ACK data=0    p=3 a=1bf  @2886000
[PASS] TC10: W-ACK err=0     p=3 a=1bf  @2886000
[PASS] TC10: W-ACK id match  p=3  @2886000
[PASS] TC10: W-ACK data=0    p=0 a=1c0  @2936000
[PASS] TC10: W-ACK err=0     p=0 a=1c0  @2936000
[PASS] TC10: W-ACK id match  p=0  @2936000
[PASS] TC10: W-ACK data=0    p=1 a=1c5  @2986000
[PASS] TC10: W-ACK err=0     p=1 a=1c5  @2986000
[PASS] TC10: W-ACK id match  p=1  @2986000
[PASS] TC10: W-ACK data=0    p=2 a=1ca  @3036000
[PASS] TC10: W-ACK err=0     p=2 a=1ca  @3036000
[PASS] TC10: W-ACK id match  p=2  @3036000
[PASS] TC10: W-ACK data=0    p=3 a=1cf  @3086000
[PASS] TC10: W-ACK err=0     p=3 a=1cf  @3086000
[PASS] TC10: W-ACK id match  p=3  @3086000
[PASS] TC10: Read data p=0 a=190 exp=c0de0000 got=c0de0000  @3136000
[PASS] TC10: Read err=0  p=0 a=190  @3136000
[PASS] TC10: Read id match p=0 txn=0 got=0  @3136000
[PASS] TC10: Read data p=1 a=195 exp=c0de0101 got=c0de0101  @3186000
[PASS] TC10: Read err=0  p=1 a=195  @3186000
[PASS] TC10: Read id match p=1 txn=1 got=1  @3186000
[PASS] TC10: Read data p=2 a=19a exp=c0de0202 got=c0de0202  @3236000
[PASS] TC10: Read err=0  p=2 a=19a  @3236000
[PASS] TC10: Read id match p=2 txn=2 got=2  @3236000
[PASS] TC10: Read data p=3 a=19f exp=c0de0303 got=c0de0303  @3286000
[PASS] TC10: Read err=0  p=3 a=19f  @3286000
[PASS] TC10: Read id match p=3 txn=3 got=3  @3286000
[PASS] TC10: Read data p=0 a=1a0 exp=c0de0404 got=c0de0404  @3336000
[PASS] TC10: Read err=0  p=0 a=1a0  @3336000
[PASS] TC10: Read id match p=0 txn=4 got=4  @3336000
[PASS] TC10: Read data p=1 a=1a5 exp=c0de0505 got=c0de0505  @3386000
[PASS] TC10: Read err=0  p=1 a=1a5  @3386000
[PASS] TC10: Read id match p=1 txn=5 got=5  @3386000
[PASS] TC10: Read data p=2 a=1aa exp=c0de0606 got=c0de0606  @3436000
[PASS] TC10: Read err=0  p=2 a=1aa  @3436000
[PASS] TC10: Read id match p=2 txn=6 got=6  @3436000
[PASS] TC10: Read data p=3 a=1af exp=c0de0707 got=c0de0707  @3486000
[PASS] TC10: Read err=0  p=3 a=1af  @3486000
[PASS] TC10: Read id match p=3 txn=7 got=7  @3486000
[PASS] TC10: Read data p=0 a=1b0 exp=c0de0808 got=c0de0808  @3536000
[PASS] TC10: Read err=0  p=0 a=1b0  @3536000
[PASS] TC10: Read id match p=0 txn=8 got=8  @3536000
[PASS] TC10: Read data p=1 a=1b5 exp=c0de0909 got=c0de0909  @3586000
[PASS] TC10: Read err=0  p=1 a=1b5  @3586000
[PASS] TC10: Read id match p=1 txn=9 got=9  @3586000
[PASS] TC10: Read data p=2 a=1ba exp=c0de0a0a got=c0de0a0a  @3636000
[PASS] TC10: Read err=0  p=2 a=1ba  @3636000
[PASS] TC10: Read id match p=2 txn=a got=a  @3636000
[PASS] TC10: Read data p=3 a=1bf exp=c0de0b0b got=c0de0b0b  @3686000
[PASS] TC10: Read err=0  p=3 a=1bf  @3686000
[PASS] TC10: Read id match p=3 txn=b got=b  @3686000
[PASS] TC10: Read data p=0 a=1c0 exp=c0de0c0c got=c0de0c0c  @3736000
[PASS] TC10: Read err=0  p=0 a=1c0  @3736000
[PASS] TC10: Read id match p=0 txn=c got=c  @3736000
[PASS] TC10: Read data p=1 a=1c5 exp=c0de0d0d got=c0de0d0d  @3786000
[PASS] TC10: Read err=0  p=1 a=1c5  @3786000
[PASS] TC10: Read id match p=1 txn=d got=d  @3786000
[PASS] TC10: Read data p=2 a=1ca exp=c0de0e0e got=c0de0e0e  @3836000
[PASS] TC10: Read err=0  p=2 a=1ca  @3836000
[PASS] TC10: Read id match p=2 txn=e got=e  @3836000
[PASS] TC10: Read data p=3 a=1cf exp=c0de0f0f got=c0de0f0f  @3886000
[PASS] TC10: Read err=0  p=3 a=1cf  @3886000
[PASS] TC10: Read id match p=3 txn=f got=f  @3886000
[PASS] TC10: 16-entry scoreboard W/R sweep complete  @3886000

=== TC_INT_11: CSR Perf Counter Reads ===
[INFO] req_count[0]  = 49
[PASS] TC11: req_count[0] > 0 after test traffic  @3906000
[INFO] rsp_count[0]  = 49
[PASS] TC11: rsp_count[0] > 0 after test traffic  @3926000
[INFO] idle_count[0] = 309 (bank 0 idle cycles)
[INFO] req_count[0] re-read = 49 (non-intrusive CSR)
[PASS] TC11: csr_ack deasserted between reads  @3966000

=== TC_INT_12: Cross-Port Write/Read Same Address ===
[PASS] TC12: W-ACK data=0    p=0 a=259  @4016000
[PASS] TC12: W-ACK err=0     p=0 a=259  @4016000
[PASS] TC12: W-ACK id match  p=0  @4016000
[PASS] TC12: Read data p=1 a=259 exp=deadcafe got=deadcafe  @4066000
[PASS] TC12: Read err=0  p=1 a=259  @4066000
[PASS] TC12: Read id match p=1 txn=5 got=5  @4066000
[PASS] TC12: W-ACK data=0    p=2 a=259  @4116000
[PASS] TC12: W-ACK err=0     p=2 a=259  @4116000
[PASS] TC12: W-ACK id match  p=2  @4116000
[PASS] TC12: Read data p=3 a=259 exp=12345678 got=12345678  @4166000
[PASS] TC12: Read err=0  p=3 a=259  @4166000
[PASS] TC12: Read id match p=3 txn=6 got=6  @4166000
[PASS] TC12: Cross-port R/W coherence verified  @4166000

========================================
  INTEGRATION TB COMPLETE
  Tests run : 12
  RESULT    : ALL PASSED ✓
========================================

- /Users/vedantnadgir/Desktop/Mem_Subsystem_RTL/banked_sram_ctrl/sim/../verif/unit/tb_banked_sram_ctrl.sv:688: Verilog $finish
- S i m u l a t i o n   R e p o r t: Verilator 5.050 2026-07-01
- Verilator: $finish at 4us; walltime 0.003 s; speed 1.456 ms/s
- Verilator: cpu 0.003 s on 1 threads; allocated 2 MB
