banked_sram_ctrl/sim/build/NUM_BANKS_2_BANK_DEPTH_64_DATA_WIDTH_32_ADDR_WIDTH_7_NUM_REQ_PORTS_2_QUEUE_DEPTH_2_ID_WIDTH_2/system/logs/system_all.log
[ENV] Reset released at 76000

=== SMOKE: Basic R/W all banks ===
[SB OK] Write ACK id=0
[SB OK] Write ACK id=1
[SB OK] Read addr=2 data=a0000000 id=0
[SB OK] Read addr=3 data=a0000001 id=1
=== SMOKE: done ===

=== CONFLICT: Bank arbitration ===
[SB OK] Write ACK id=0
[SB OK] Write ACK id=0
[SB OK] Read addr=14 data=aaaa0000 id=1
[SB OK] Read addr=16 data=bbbb1111 id=1
[SB OK] Write ACK id=2
[SB OK] Write ACK id=2
[SB OK] Read addr=28 data=c0000000 id=3
[SB OK] Read addr=2a data=c0000001 id=3
=== CONFLICT: done ===

=== BACKPRESSURE: FIFO stall chain ===
[BP OK]  req_ready[0]=0 (stall chain working)
[SB OK] Write ACK id=0
[SB OK] Read addr=65 data=cccccccc id=1
[BP OK]  Port 1 unaffected
=== BACKPRESSURE: done ===

=== RANDOM: 40 transactions ===
[SB OK] Write ACK id=0
[SB OK] Write ACK id=1
[SB OK] Write ACK id=2
[SB OK] Write ACK id=3
[SB OK] Write ACK id=0
[SB OK] Write ACK id=1
[SB OK] Write ACK id=2
[SB OK] Write ACK id=3
[SB OK] Read addr=63 data=a87007dd id=0
[SB OK] Write ACK id=1
[SB OK] Write ACK id=2
[SB OK] Write ACK id=3
[SB OK] Write ACK id=0
[SB OK] Write ACK id=1
[SB OK] Write ACK id=2
[SB OK] Write ACK id=3
[SB OK] Write ACK id=0
[SB OK] Write ACK id=1
[SB OK] Write ACK id=2
[SB OK] Write ACK id=3
[SB OK] Write ACK id=0
[SB OK] Write ACK id=1
[SB OK] Write ACK id=2
[SB OK] Read addr=3f data=306c2019 id=3
[SB OK] Write ACK id=0
[SB OK] Write ACK id=1
[SB OK] Write ACK id=2
[SB OK] Write ACK id=3
[SB OK] Write ACK id=0
[SB OK] Write ACK id=1
[SB OK] Write ACK id=2
[SB OK] Write ACK id=3
[SB OK] Write ACK id=0
[SB OK] Write ACK id=1
[SB OK] Write ACK id=2
[SB OK] Write ACK id=3
[SB OK] Write ACK id=0
[SB OK] Write ACK id=1
[SB OK] Write ACK id=2
[SB OK] Write ACK id=3
=== RANDOM: done ===

=== STRESS: 100 W + 100 R ===
[SB OK] Write ACK id=0
[SB OK] Write ACK id=1
[SB OK] Write ACK id=2
[SB OK] Write ACK id=3
[SB OK] Write ACK id=0
[SB OK] Write ACK id=1
[SB OK] Write ACK id=2
[SB OK] Write ACK id=3
[SB OK] Write ACK id=0
[SB OK] Write ACK id=1
[SB OK] Write ACK id=2
[SB OK] Write ACK id=3
[SB OK] Write ACK id=0
[SB OK] Write ACK id=1
[SB OK] Write ACK id=2
[SB OK] Write ACK id=3
[SB OK] Write ACK id=0
[SB OK] Write ACK id=1
[SB OK] Write ACK id=2
[SB OK] Write ACK id=3
[SB OK] Write ACK id=0
[SB OK] Write ACK id=1
[SB OK] Write ACK id=2
[SB OK] Write ACK id=3
[SB OK] Write ACK id=0
[SB OK] Write ACK id=1
[SB OK] Write ACK id=2
[SB OK] Write ACK id=3
[SB OK] Write ACK id=0
[SB OK] Write ACK id=1
[SB OK] Write ACK id=2
[SB OK] Write ACK id=3
[SB OK] Write ACK id=0
[SB OK] Write ACK id=1
[SB OK] Write ACK id=2
[SB OK] Write ACK id=3
[SB OK] Write ACK id=0
[SB OK] Write ACK id=1
[SB OK] Write ACK id=2
[SB OK] Write ACK id=3
[SB OK] Write ACK id=0
[SB OK] Write ACK id=1
[SB OK] Write ACK id=2
[SB OK] Write ACK id=3
[SB OK] Write ACK id=0
[SB OK] Write ACK id=1
[SB OK] Write ACK id=2
[SB OK] Write ACK id=3
[SB OK] Write ACK id=0
[SB OK] Write ACK id=1
[SB OK] Write ACK id=2
[SB OK] Write ACK id=3
[SB OK] Write ACK id=0
[SB OK] Write ACK id=1
[SB OK] Write ACK id=2
[SB OK] Write ACK id=3
[SB OK] Write ACK id=0
[SB OK] Write ACK id=1
[SB OK] Write ACK id=2
[SB OK] Write ACK id=3
[SB OK] Write ACK id=0
[SB OK] Write ACK id=1
[SB OK] Write ACK id=2
[SB OK] Write ACK id=3
[SB OK] Write ACK id=0
[SB OK] Write ACK id=1
[SB OK] Write ACK id=2
[SB OK] Write ACK id=3
[SB OK] Write ACK id=0
[SB OK] Write ACK id=1
[SB OK] Write ACK id=2
[SB OK] Write ACK id=3
[SB OK] Write ACK id=0
[SB OK] Write ACK id=1
[SB OK] Write ACK id=2
[SB OK] Write ACK id=3
[SB OK] Write ACK id=0
[SB OK] Write ACK id=1
[SB OK] Write ACK id=2
[SB OK] Write ACK id=3
[SB OK] Write ACK id=0
[SB OK] Write ACK id=1
[SB OK] Write ACK id=2
[SB OK] Write ACK id=3
[SB OK] Write ACK id=0
[SB OK] Write ACK id=1
[SB OK] Write ACK id=2
[SB OK] Write ACK id=3
[SB OK] Write ACK id=0
[SB OK] Write ACK id=1
[SB OK] Write ACK id=2
[SB OK] Write ACK id=3
[SB OK] Write ACK id=0
[SB OK] Write ACK id=1
[SB OK] Write ACK id=2
[SB OK] Write ACK id=3
[SB OK] Write ACK id=0
[SB OK] Write ACK id=1
[SB OK] Write ACK id=2
[SB OK] Write ACK id=3
[SB OK] Read addr=4 data=f0004040 id=0
[SB OK] Read addr=7 data=f0004141 id=1
[SB OK] Read addr=8 data=f0004242 id=2
[SB OK] Read addr=b data=f0004343 id=3
[SB OK] Read addr=c data=f0004444 id=0
[SB OK] Read addr=f data=f0004545 id=1
[SB OK] Read addr=10 data=f0004646 id=2
[SB OK] Read addr=13 data=f0004747 id=3
[SB OK] Read addr=14 data=f0004848 id=0
[SB OK] Read addr=17 data=f0004949 id=1
[SB OK] Read addr=18 data=f0004a4a id=2
[SB OK] Read addr=1b data=f0004b4b id=3
[SB OK] Read addr=1c data=f0004c4c id=0
[SB OK] Read addr=1f data=f0004d4d id=1
[SB OK] Read addr=20 data=f0004e4e id=2
[SB OK] Read addr=23 data=f0004f4f id=3
[SB OK] Read addr=24 data=f0005050 id=0
[SB OK] Read addr=27 data=f0005151 id=1
[SB OK] Read addr=28 data=f0005252 id=2
[SB OK] Read addr=2b data=f0005353 id=3
[SB OK] Read addr=2c data=f0005454 id=0
[SB OK] Read addr=2f data=f0005555 id=1
[SB OK] Read addr=30 data=f0005656 id=2
[SB OK] Read addr=33 data=f0005757 id=3
[SB OK] Read addr=34 data=f0005858 id=0
[SB OK] Read addr=37 data=f0005959 id=1
[SB OK] Read addr=38 data=f0005a5a id=2
[SB OK] Read addr=3b data=f0005b5b id=3
[SB OK] Read addr=3c data=f0005c5c id=0
[SB OK] Read addr=3f data=f0005d5d id=1
[SB OK] Read addr=40 data=f0005e5e id=2
[SB OK] Read addr=43 data=f0005f5f id=3
[SB OK] Read addr=44 data=f0006060 id=0
[SB OK] Read addr=47 data=f0006161 id=1
[SB OK] Read addr=48 data=f0006262 id=2
[SB OK] Read addr=4b data=f0006363 id=3
[SB OK] Read addr=4c data=f0002424 id=0
[SB OK] Read addr=4f data=f0002525 id=1
[SB OK] Read addr=50 data=f0002626 id=2
[SB OK] Read addr=53 data=f0002727 id=3
[SB OK] Read addr=54 data=f0002828 id=0
[SB OK] Read addr=57 data=f0002929 id=1
[SB OK] Read addr=58 data=f0002a2a id=2
[SB OK] Read addr=5b data=f0002b2b id=3
[SB OK] Read addr=5c data=f0002c2c id=0
[SB OK] Read addr=5f data=f0002d2d id=1
[SB OK] Read addr=60 data=f0002e2e id=2
[SB OK] Read addr=63 data=f0002f2f id=3
[SB OK] Read addr=64 data=f0003030 id=0
[SB OK] Read addr=67 data=f0003131 id=1
[SB OK] Read addr=68 data=f0003232 id=2
[SB OK] Read addr=6b data=f0003333 id=3
[SB OK] Read addr=6c data=f0003434 id=0
[SB OK] Read addr=6f data=f0003535 id=1
[SB OK] Read addr=70 data=f0003636 id=2
[SB OK] Read addr=73 data=f0003737 id=3
[SB OK] Read addr=74 data=f0003838 id=0
[SB OK] Read addr=77 data=f0003939 id=1
[SB OK] Read addr=78 data=f0003a3a id=2
[SB OK] Read addr=7b data=f0003b3b id=3
[SB OK] Read addr=7c data=f0003c3c id=0
[SB OK] Read addr=7f data=f0003d3d id=1
[SB OK] Read addr=0 data=f0003e3e id=2
[SB OK] Read addr=3 data=f0003f3f id=3
[SB OK] Read addr=4 data=f0004040 id=0
[SB OK] Read addr=7 data=f0004141 id=1
[SB OK] Read addr=8 data=f0004242 id=2
[SB OK] Read addr=b data=f0004343 id=3
[SB OK] Read addr=c data=f0004444 id=0
[SB OK] Read addr=f data=f0004545 id=1
[SB OK] Read addr=10 data=f0004646 id=2
[SB OK] Read addr=13 data=f0004747 id=3
[SB OK] Read addr=14 data=f0004848 id=0
[SB OK] Read addr=17 data=f0004949 id=1
[SB OK] Read addr=18 data=f0004a4a id=2
[SB OK] Read addr=1b data=f0004b4b id=3
[SB OK] Read addr=1c data=f0004c4c id=0
[SB OK] Read addr=1f data=f0004d4d id=1
[SB OK] Read addr=20 data=f0004e4e id=2
[SB OK] Read addr=23 data=f0004f4f id=3
[SB OK] Read addr=24 data=f0005050 id=0
[SB OK] Read addr=27 data=f0005151 id=1
[SB OK] Read addr=28 data=f0005252 id=2
[SB OK] Read addr=2b data=f0005353 id=3
[SB OK] Read addr=2c data=f0005454 id=0
[SB OK] Read addr=2f data=f0005555 id=1
[SB OK] Read addr=30 data=f0005656 id=2
[SB OK] Read addr=33 data=f0005757 id=3
[SB OK] Read addr=34 data=f0005858 id=0
[SB OK] Read addr=37 data=f0005959 id=1
[SB OK] Read addr=38 data=f0005a5a id=2
[SB OK] Read addr=3b data=f0005b5b id=3
[SB OK] Read addr=3c data=f0005c5c id=0
[SB OK] Read addr=3f data=f0005d5d id=1
[SB OK] Read addr=40 data=f0005e5e id=2
[SB OK] Read addr=43 data=f0005f5f id=3
[SB OK] Read addr=44 data=f0006060 id=0
[SB OK] Read addr=47 data=f0006161 id=1
[SB OK] Read addr=48 data=f0006262 id=2
[SB OK] Read addr=4b data=f0006363 id=3
=== STRESS: done ===
[SCOREBOARD] Total checks: 254  Errors: 0

========================================
  RESULT: ALL PASSED
========================================

- /Users/vedantnadgir/Desktop/Mem_Subsystem_RTL/banked_sram_ctrl/sim/../verif/system/tb_sys.sv:113: Verilog $finish
- S i m u l a t i o n   R e p o r t: Verilator 5.050 2026-07-01
- Verilator: $finish at 13us; walltime 0.001 s; speed 11.033 ms/s
- Verilator: cpu 0.001 s on 1 threads; allocated 2 MB
